20170731 16:18:17:1501535897023:17378:utilidades.General INICIO LOG
20170731 16:18:17:1501535897024:Timeout:10000
Temporizador.agregar:43 Temporizador.agregar:55 Puente.atenderCliente:191 Puente.run:25
T 0
20170731 16:21:02:1501536062031:Timeout:10000
Temporizador.agregar:43 Temporizador.agregar:55 Puente.atenderCliente:191 Puente.run:25
T 0
20170731 16:58:02:1501538282679:17378:utilidades.General INICIO LOG
20170731 16:58:02:1501538282679:Timeout:10000
Temporizador.agregar:43 Temporizador.agregar:55 Puente.atenderCliente:202 Puente.run:26
T 1
