10000v10000 L10 startpos
d2d4 g8f6 c2c4 e7e6 g1f3 d7d5 b1c3 d5c4 e2e4 f8b4
e2e4 e7e6 d2d4 d7d5 e4e5 c7c5 c2c3 c8d7 g1f3 b8c6
d2d4 g8f6 c2c4 e7e6 b1c3 f8b4 e2e3 e8g8 g1f3 c7c5
e2e4 e7e5 g1f3 b8c6 f1b5 g8f6 e1g1 f6e4 f1e1 e4d6
g1f3 d7d5 d2d4 e7e6 c2c4 g8f6 b1c3 b8d7 c1g5 h7h6
d2d4 g8f6 c2c4 e7e6 b1c3 f8b4 g1f3 e8g8 d1c2 d7d5
d2d4 g8f6 c2c4 e7e6 b1c3 f8b4 e2e3 e8g8 g1f3 d7d5
d2d4 g8f6 c2c4 e7e6 b1c3 f8b4 e2e3 e8g8 g1f3 b7b6
g1f3 d7d5 d2d4 g8f6 c2c4 e7e6 b1c3 d5c4 e2e3 a7a6
e2e4 c7c5 g1f3 b8c6 d2d4 c5d4 f3d4 e7e6 b1c3 d8c7
e2e4 e7e5 g1f3 b8c6 f1b5 a7a6 b5a4 g8f6 e1g1 b7b5
e2e4 c7c5 g1f3 d7d6 d2d4 c5d4 f3d4 g8f6 b1c3 b8c6
e2e4 e7e5 g1f3 b8c6 f1b5 a7a6 b5a4 f8c5 c2c3 c5a7
e2e4 e7e5 g1f3 b8c6 b1c3 g8f6 f1b5 f8b4 e1g1 e8g8
e2e4 c7c5 g1f3 e7e6 d2d4 c5d4 f3d4 a7a6 c2c4 g8f6
e2e4 e7e6 d2d4 d7d5 b1c3 g8f6 c1g5 d5e4 c3e4 b8d7
d2d4 g8f6 c2c4 e7e6 b1c3 d7d5 c1g5 f8e7 e2e3 e8g8
e2e4 c7c5 g1f3 d7d6 d2d4 c5d4 f3d4 g8f6 b1c3 a7a6
e2e4 c7c5 g1f3 d7d6 d2d4 g8f6 b1c3 c5d4 f3d4 a7a6
e2e4 e7e6 d2d4 d7d5 b1c3 g8f6 c1g5 d5e4 c3e4 f8e7
d2d4 g8f6 c2c4 e7e6 g1f3 d7d5 b1c3 b8d7 c4d5 e6d5
d2d4 d7d5 c2c4 e7e6 b1c3 g8f6 c4d5 e6d5 c1g5 c7c6
d2d4 d7d5 c2c4 e7e6 b1c3 g8f6 g1f3 d5c4 e2e3 a7a6
e2e4 e7e5 g1f3 b8c6 f1c4 f8c5 c2c3 g8f6 d2d3 a7a6
d2d4 g8f6 c2c4 e7e6 b1c3 d7d5 c1g5 f8e7 c4d5 f6d5
d2d4 g8f6 c2c4 e7e6 g1f3 d7d5 b1c3 b8d7 c1g5 f8e7
e2e4 e7e6 d2d4 d7d5 e4e5 c7c5 c2c3 b8c6 g1f3 c8d7
e2e4 e7e5 g1f3 b8c6 d2d4 e5d4 f3d4 f8c5 d4c6 d8f6
d2d4 g8f6 c2c4 e7e6 b1c3 f8b4 d1c2 e8g8 c1g5 c7c5
d2d4 g8f6 c2c4 e7e6 b1c3 f8b4 g1f3 b7b6 e2e3 e8g8
e2e4 c7c5 g1f3 e7e6 d2d4 c5d4 f3d4 b8c6 b1c3 d8c7
d2d4 g8f6 c2c4 e7e6 g1f3 b7b6 g2g3 c8a6 b2b3 f8b4
d2d4 g8f6 g1f3 d7d5 c2c4 e7e6 b1c3 b8d7 c1g5 f8e7
c2c4 g8f6 d2d4 e7e6 g1f3 d7d5 b1c3 d5c4 e2e3 a7a6
e2e4 e7e5 g1f3 b8c6 d2d4 e5d4 f3d4 g8f6 d4c6 b7c6
g1f3 d7d5 d2d4 g8f6 c2c4 c7c6 b1c3 e7e6 e2e3 b8d7
e2e4 c7c6 g1f3 d7d5 d2d3 g7g6 e4d5 c6d5 d3d4 f8g7
g1f3 c7c5 c2c4 g8f6 b1c3 b8c6 g2g3 d7d5 c4d5 f6d5
d2d4 g8f6 c2c4 e7e6 b1c3 f8b4 d1c2 e8g8 g1f3 c7c5
e2e4 e7e6 d2d4 d7d5 e4e5 c7c5 c2c3 c8d7 g1f3 d8b6
e2e4 e7e5 g1f3 b8c6 d2d4 e5d4 f3d4 f8c5 d4b3 c5b6
d2d4 d7d5 c2c4 e7e6 b1c3 g8f6 c1g5 f8e7 g1f3 h7h6
e2e4 e7e5 g1f3 b8c6 f1b5 a7a6 b5a4 g8f6 e1g1 f8e7
e2e4 e7e5 g1f3 b8c6 f1c4 f8c5 e1g1 g8f6 d2d3 d7d6
d2d4 g8f6 c2c4 e7e6 b1c3 f8b4 g1f3 b7b6 e2e3 c8b7
e2e4 e7e5 g1f3 b8c6 f1b5 a7a6 b5a4 b7b5 a4b3 g8f6
d2d4 g8f6 c2c4 e7e6 g1f3 d7d5 g2g3 f8b4 c1d2 b4e7
d2d4 g8f6 c2c4 e7e6 g1f3 d7d5 b1c3 f8e7 c1f4 e8g8
d2d4 g8f6 c2c4 e7e6 b1c3 f8b4 g1f3 c7c5 g2g3 b8c6
d2d4 g8f6 c2c4 e7e6 g1f3 d7d5 b1c3 f8e7 c1g5 h7h6
e2e4 c7c5 g1f3 b8c6 d2d4 c5d4 f3d4 e7e6 b1c3 g8f6
d2d4 g8f6 c2c4 e7e6 b1c3 f8b4 d1c2 e8g8 a2a3 b4c3
d2d4 g8f6 c2c4 e7e6 g1f3 d7d5 b1c3 c7c6 c1g5 f8e7
d2d4 g8f6 c2c4 e7e6 g2g3 d7d5 f1g2 f8b4 c1d2 b4e7
e2e4 e7e5 g1f3 b8c6 f1c4 f8c5 b1c3 g8f6 d2d3 h7h6
d2d4 g8f6 c2c4 e7e6 g1f3 b7b6 g2g3 c8a6 b2b3 a6b7
d2d4 g8f6 c2c4 e7e6 g1f3 d7d5 b1c3 f8e7 g2g3 b8d7
e2e4 c7c6 d2d4 d7d5 b1d2 d5e4 d2e4 c8f5 e4g3 f5g6
d2d4 g8f6 c2c4 e7e6 g1f3 d7d5 b1c3 d5c4 e2e3 a7a6
e2e4 c7c5 g1f3 b8c6 b1c3 e7e5 f1c4 f8e7 d2d3 d7d6
e2e4 c7c6 b1c3 d7d5 d2d4 d5e4 c3e4 c8f5 e4g3 f5g6
d2d4 g8f6 c2c4 e7e6 g1f3 d7d5 b1c3 c7c6 c1g5 b8d7
d2d4 g8f6 c2c4 e7e6 b1c3 f8b4 d1c2 e8g8 g1f3 d7d5
d2d4 g8f6 c2c4 e7e6 g2g3 d7d5 f1g2 f8b4 b1d2 e8g8
d2d4 g8f6 c2c4 e7e6 b1c3 f8b4 g1f3 c7c5 g2g3 c5d4
e2e4 e7e5 g1f3 b8c6 f1b5 a7a6 b5a4 f8e7 e1g1 g8f6
d2d4 g8f6 c2c4 e7e6 g1f3 b7b6 a2a3 c8b7 c1f4 d7d5
e2e4 e7e5 g1f3 b8c6 d2d4 e5d4 f3d4 d8f6 d4b5 f8c5
d2d4 g8f6 g1f3 e7e6 c2c4 d7d5 b1c3 d5c4 e2e4 f8b4
e2e4 c7c6 d2d4 d7d5 b1c3 d5e4 c3e4 c8f5 e4g3 f5g6
d2d4 g8f6 c2c4 e7e6 g1f3 d7d5 b1c3 b8d7 c1g5 h7h6
d2d4 g8f6 c2c4 e7e6 g2g3 f8b4 c1d2 b4e7 g1f3 d7d5
d2d4 g8f6 c2c4 e7e6 b1c3 d7d5 c4d5 e6d5 c1g5 c7c6
d2d4 g8f6 c2c4 e7e6 g1f3 d7d5 b1c3 b8d7 c1f4 d5c4
d2d4 g8f6 c2c4 e7e6 g1f3 d7d5 g2g3 d5c4 f1g2 b8c6
d2d4 g8f6 c2c4 e7e6 b1c3 f8b4 e2e3 e8g8 c1d2 b7b6
e2e4 c7c5 g1f3 b8c6 d2d4 c5d4 f3d4 g8f6 b1c3 e7e6
e2e4 c7c5 g1f3 e7e6 d2d4 c5d4 f3d4 g8f6 b1c3 b8c6
d2d4 g8f6 c2c4 e7e6 b1c3 f8b4 g1f3 e8g8 e2e3 d7d5
e2e4 e7e6 d2d4 d7d5 b1d2 c7c5 e4d5 d8d5 g1f3 c5d4
d2d4 g8f6 g1f3 e7e6 c2c4 d7d5 g2g3 f8b4 c1d2 b4e7
g1f3 g8f6 d2d4 b7b6 g2g3 c8b7 c2c4 e7e6 f1g2 f8b4
d2d4 g8f6 c2c4 e7e6 b1c3 d7d5 g1f3 d5c4 e2e4 f8b4
e2e4 c7c5 g1f3 b8c6 f1b5 g7g6 e1g1 f8g7 c2c3 g8f6
e2e4 e7e6 d2d4 d7d5 e4d5 e6d5 g1f3 g8f6 f1d3 c8e6
d2d4 g8f6 c2c4 e7e6 g2g3 d7d5 f1g2 b8d7 d1c2 f8b4
e2e4 e7e5 g1f3 b8c6 f1b5 a7a6 b5a4 b7b5 a4b3 c8b7
g1f3 e7e6 d2d4 g8f6 c2c4 d7d5 b1c3 c7c6 e2e3 b8d7
d2d4 g8f6 c2c4 c7c6 b1c3 d7d5 g1f3 e7e6 e2e3 b8d7
d2d4 g8f6 c2c4 e7e6 g1f3 d7d5 c4d5 e6d5 b1c3 c7c6
d2d4 g8f6 c2c4 e7e6 g2g3 d7d5 g1f3 f8b4 c1d2 b4e7
d2d4 g8f6 c2c4 e7e6 g1f3 d7d5 b1c3 f8e7 c1f4 d5c4
d2d4 g8f6 c2c4 c7c6 e2e3 d7d5 b1c3 c8f5 c4d5 c6d5
e2e4 e7e6 d2d4 d7d5 e4e5 c7c5 c2c3 g8e7 g1f3 b8c6
c2c4 g8f6 d2d4 e7e6 g2g3 f8b4 c1d2 b4e7 f1g2 d7d5
d2d4 d7d5 c2c4 e7e6 b1c3 g8f6 c1g5 f8e7 e2e3 h7h6
d2d4 d7d5 c2c4 e7e6 b1c3 g8f6 g1f3 d5c4 e2e4 f8b4
d2d4 g8f6 g1f3 d7d5 c2c4 e7e6 b1c3 d5c4 e2e3 a7a6
d2d4 d7d5 c2c4 e7e6 b1c3 g8f6 c1g5 f8e7 e2e3 e8g8
e2e4 e7e5 g1f3 b8c6 d2d4 e5d4 f3d4 g8f6 b1c3 f8b4
d2d4 d7d5 c2c4 e7e6 b1c3 g8f6 c1g5 f8e7 c4d5 e6d5
e2e4 c7c5 g1f3 e7e6 d2d4 c5d4 f3d4 a7a6 f1d3 g8f6
d2d4 g8f6 c2c4 e7e6 g1f3 d7d5 b1c3 c7c6 c1g5 h7h6
g1f3 g8f6 c2c4 c7c6 b1c3 d7d5 c4d5 c6d5 d2d4 e7e6
g1f3 d7d5 d2d4 g8f6 c2c4 c7c6 c4d5 c6d5 b1c3 b8c6
e2e4 e7e6 d2d4 d7d5 b1c3 g8f6 e4e5 f6d7 f2f4 c7c5
d2d4 g8f6 c2c4 e7e6 g2g3 d7d5 f1g2 d5c4 g1f3 c7c6
d2d4 g8f6 c2c4 e7e6 g2g3 f8b4 c1d2 b4e7 f1g2 d7d5
d2d4 d7d5 c2c4 e7e6 b1c3 g8f6 g1f3 b8d7 c4d5 e6d5
g1f3 d7d5 d2d4 g8f6 c2c4 e7e6 b1c3 d5c4 e2e4 f8b4
d2d4 g8f6 c2c4 e7e6 b1c3 d7d5 c4d5 e6d5 c1g5 f8e7
e2e4 e7e6 g1f3 d7d5 e4d5 e6d5 d2d4 g8f6 f1d3 c7c5
e2e4 c7c5 g1f3 e7e6 d2d4 c5d4 f3d4 b8c6 b1c3 g8f6
d2d4 d7d5 c2c4 c7c6 g1f3 g8f6 c4d5 c6d5 b1c3 b8c6
d2d4 d7d5 c2c4 d5c4 e2e3 g8f6 g1f3 e7e6 f1c4 a7a6
d2d4 g8f6 g1f3 d7d5 c2c4 e7e6 b1c3 c7c6 c1g5 h7h6
d2d4 d7d5 c2c4 e7e6 c4d5 e6d5 b1c3 c7c6 c1f4 g8f6
d2d4 d7d5 c2c4 e7e6 g1f3 g8f6 b1c3 d5c4 e2e3 a7a6
d2d4 g8f6 c2c4 e7e6 b1c3 f8b4 g1f3 c7c5 e2e3 c5d4
e2e4 e7e5 g1f3 b8c6 f1c4 f8c5 c2c3 g8f6 d2d3 a7a5
e2e4 c7c6 d2d4 d7d5 e4e5 c8f5 g1f3 e7e6 f1e2 c6c5
e2e4 c7c5 g1f3 b8c6 d2d4 c5d4 f3d4 g8f6 b1c3 e7e5
d2d4 g8f6 c2c4 e7e6 g1f3 d7d5 b1c3 f8b4 d1a4 b8c6
e2e4 e7e5 g1f3 b8c6 f1c4 f8c5 b1c3 g8f6 e1g1 e8g8
d2d4 d7d5 c2c4 c7c6 g1f3 e7e6 b1d2 g8f6 e2e3 b8d7
d2d4 g8f6 c2c4 e7e6 b1c3 f8b4 g1f3 e8g8 e2e3 c7c5
d2d4 g8f6 c2c4 e7e6 e2e3 d7d5 g1f3 f8e7 f1e2 e8g8
e2e4 e7e5 g1f3 b8c6 f1c4 f8c5 d2d3 g8f6 b1c3 e8g8
g1f3 g8f6 d2d4 d7d5 c2c4 e7e6 b1c3 b8d7 c4d5 e6d5
d2d4 g8f6 c2c4 e7e6 g1f3 f8e7 g2g3 d7d5 f1g2 e8g8
d2d4 g8f6 c2c4 e7e6 b1c3 f8b4 g1f3 b7b6 e2e3 c7c5
e2e4 c7c6 d2d4 d7d5 e4e5 c6c5 d4c5 e7e6 c1e3 b8d7
e2e4 c7c6 d2d4 d7d5 e4e5 c6c5 d4c5 e7e6 g1f3 f8c5
e2e4 c7c5 g1f3 b8c6 b1c3 e7e5 f1c4 d7d6 d2d3 h7h6
e2e4 e7e5 g1f3 g8f6 f3e5 d7d6 e5f3 f6e4 d2d4 d6d5
c2c4 e7e5 g2g3 g8f6 f1g2 c7c6 g1f3 d7d6 b1c3 f8e7
d2d4 g8f6 c2c4 e7e6 c1g5 h7h6 g5h4 c7c5 d4d5 e6d5
d2d4 g8f6 c2c4 e7e6 b1c3 f8b4 e2e3 e8g8 g1f3 b4c3
g1f3 e7e6 c2c4 g8f6 b1c3 f8b4 d1c2 e8g8 a2a3 b4c3
d2d4 g8f6 c2c4 e7e6 g1f3 d7d5 b1c3 c7c6 e2e3 b7b6
d2d4 g8f6 c2c4 e7e6 b1c3 f8b4 g1f3 b7b6 c1d2 c7c5
d2d4 g8f6 c2c4 e7e6 g1f3 d7d5 b1c3 f8e7 c1f4 c7c6
d2d4 d7d5 g1f3 e7e6 c2c4 g8f6 b1c3 f8e7 c1f4 e8g8
d2d4 d7d5 c2c4 e7e6 b1c3 f8e7 c1f4 g8f6 g1f3 e8g8
d2d4 g8f6 c2c4 e7e6 g1f3 d7d5 b1c3 c7c6 e2e3 b8d7
d2d4 d7d5 c2c4 d5c4 e2e3 g8f6 f1c4 e7e6 g1f3 a7a6
d2d4 d7d5 g1f3 e7e6 c2c4 g8f6 b1c3 c7c6 e2e3 b8d7
e2e4 e7e5 g1f3 b8c6 f1c4 f8c5 d2d3 g8f6 c2c3 e8g8
e2e4 e7e6 d2d4 d7d5 e4e5 c7c5 c2c3 b8c6 g1f3 g8e7
e2e4 c7c6 g1f3 d7d5 d2d3 d8c7 b1c3 d5e4 c3e4 g8f6
g1f3 e7e6 d2d4 d7d5 c2c4 g8f6 g2g3 f8b4 c1d2 b4e7
d2d4 g8f6 c2c4 e7e6 b1c3 f8b4 g1f3 c7c5 g2g3 b4c3
d2d4 g8f6 c2c4 e7e6 g1f3 b7b6 g2g3 c8a6 b2b3 d7d5
d2d4 g8f6 c2c4 e7e6 b1c3 d7d5 g1f3 b8d7 c4d5 e6d5
d2d4 g8f6 c2c4 e7e6 g2g3 f8b4 b1d2 d7d5 f1g2 e8g8
d2d4 d7d5 c2c4 e7e6 b1c3 g8f6 c1g5 f8e7 g1f3 b8d7
d2d4 g8f6 c2c4 e7e6 b1c3 f8b4 g2g3 e8g8 d1b3 b8c6
e2e4 e7e5 g1f3 b8c6 f1c4 f8c5 e1g1 g8f6 b1c3 e8g8
e2e4 c7c5 g1f3 b8c6 d2d4 c5d4 f3d4 g8f6 b1c3 d7d6
d2d4 d7d5 c2c4 e7e6 g1f3 g8f6 b1c3 b8d7 c1f4 d5c4
d2d4 g8f6 c2c4 e7e6 g2g3 d7d5 f1g2 d5c4 g1f3 b8d7
d2d4 d7d5 c2c4 e7e6 b1c3 g8f6 g1f3 f8e7 c1f4 e8g8
e2e4 c7c6 d2d4 d7d5 e4e5 c8f5 h2h4 h7h6 g2g4 f5e4
d2d4 d7d5 c2c4 e7e6 b1c3 g8f6 g1f3 c7c6 c1g5 b8d7
d2d4 d7d5 c2c4 e7e6 b1c3 c7c6 c4d5 e6d5 d1c2 f8d6
d2d4 d7d5 c2c4 e7e6 g1f3 g8f6 b1c3 f8e7 c1f4 e8g8
d2d4 g8f6 c2c4 c7c6 b1c3 d7d5 g1f3 d5c4 a2a4 e7e6
e2e4 c7c5 g1f3 e7e6 d2d4 c5d4 f3d4 a7a6 f1d3 d7d5
g1f3 d7d5 d2d4 g8f6 c2c4 e7e6 b1c3 b8d7 c1f4 d5c4
d2d4 g8f6 c2c4 e7e6 b1c3 d7d5 c1g5 f8e7 g1f3 h7h6
e2e4 c7c5 g1f3 b8c6 b1c3 e7e6 d2d4 c5d4 f3d4 g8f6
e2e4 e7e5 g1f3 b8c6 b1c3 g8f6 d2d4 f8b4 f3e5 f6e4
g1f3 g8f6 d2d4 e7e6 c2c4 d7d5 b1c3 b8d7 c1g5 f8e7
g1f3 d7d5 d2d4 e7e6 c2c4 g8f6 b1c3 b8d7 c1g5 f8e7
e2e4 c7c5 g1f3 e7e6 d2d4 c5d4 f3d4 a7a6 f1d3 b7b6
d2d4 g8f6 c2c4 c7c6 c1f4 d8b6 b2b3 d7d6 g1f3 c8f5
g1f3 e7e6 e2e4 d7d5 e4d5 e6d5 d2d4 f8e7 f1d3 g8f6
d2d4 g8f6 c2c4 c7c6 g1f3 d7d5 c4d5 c6d5 b1c3 b8c6
d2d4 g8f6 c2c4 e7e6 b1c3 d7d5 c1g5 f8e7 e2e3 h7h6
e2e4 e7e5 g1f3 b8c6 d2d4 e5d4 f3d4 f8b4 c2c3 b4c5
g1f3 g8f6 d2d4 d7d5 c2c4 e7e6 g2g3 d5c4 f1g2 c7c6
e2e4 e7e5 g1f3 b8c6 f1c4 f8c5 c2c3 g8f6 d2d3 e8g8
e2e4 c7c5 g1f3 e7e6 d2d4 c5d4 f3d4 b8c6 b1c3 a7a6
d2d4 g8f6 c2c4 c7c6 g1f3 d7d5 e2e3 c8f5 b1c3 e7e6
d2d4 g8f6 c2c4 e7e6 b1c3 f8b4 e2e3 e8g8 f1d3 d7d5
d2d4 d7d5 c2c4 e7e6 b1c3 g8f6 c1g5 f8e7 g1f3 e8g8
d2d4 d7d5 c2c4 e7e6 b1c3 g8f6 g1f3 b8d7 c1f4 d5c4
d2d4 d7d5 g1f3 g8f6 c2c4 e7e6 b1c3 f8e7 c1f4 e8g8
d2d4 g8f6 c2c4 c7c6 b1c3 d7d5 g1f3 e7e6 c1g5 h7h6
d2d4 g8f6 c2c4 e7e6 g1f3 d7d5 b1c3 b8d7 c1g5 f8b4
e2e4 e7e6 d2d4 d7d5 b1c3 g8f6 c1g5 f8e7 e4e5 f6d7
g1f3 d7d5 d2d4 g8f6 c2c4 d5c4 e2e3 c7c5 f1c4 e7e6
e2e4 e7e5 g1f3 b8c6 f1b5 a7a6 b5a4 g8f6 e1g1 f6e4
d2d4 g8f6 g1f3 e7e6 c2c4 d7d5 b1c3 b8d7 c1g5 f8e7
d2d4 g8f6 c2c4 e7e6 g1f3 d7d5 b1c3 b8d7 c1f4 f8b4
d2d4 g8f6 g1f3 e7e6 c2c4 d7d5 b1c3 b8d7 c1f4 f8b4
d2d4 d7d5 c2c4 c7c6 g1f3 g8f6 g2g3 c8f5 b1c3 e7e6
e2e4 e7e5 g1f3 b8c6 f1c4 f8c5 d2d3 g8f6 e1g1 d7d6
d2d4 d7d5 c2c4 e7e6 b1c3 g8f6 g1f3 b8d7 c1g5 h7h6
d2d4 g8f6 c2c4 e7e6 g2g3 f8b4 c1d2 b4e7 g1f3 c7c6
d2d4 g8f6 c2c4 c7c6 b1c3 d7d5 c4d5 c6d5 g1f3 e7e6
e2e4 e7e6 d2d4 d7d5 b1d2 c7c5 g1f3 g8f6 e4d5 f6d5
d2d4 g8f6 c2c4 c7c6 g1f3 d7d5 b1c3 e7e6 c1g5 f8e7
g1f3 e7e6 e2e4 d7d5 e4d5 e6d5 d2d4 f8d6 c2c4 c7c6
e2e4 c7c5 g1f3 b8c6 f1b5 e7e6 e1g1 g8e7 f1e1 e7g6
d2d4 g8f6 c2c4 e7e6 b1c3 f8b4 g1f3 e8g8 c1g5 c7c5
e2e4 e7e6 d2d4 d7d5 e4e5 c7c5 c2c3 b8c6 g1f3 d8b6
e2e4 c7c6 g1f3 d7d5 b1c3 c8g4 h2h3 g4f3 d1f3 e7e6
g1f3 g8f6 c2c4 e7e6 d2d4 d7d5 b1c3 f8e7 g2g3 b8d7
d2d4 g8f6 c2c4 e7e6 g2g3 d7d5 f1g2 d5c4 g1f3 a7a6
d2d4 g8f6 c2c4 e7e6 b1c3 d7d5 g1f3 f8e7 c1f4 e8g8
e2e4 e7e6 d2d4 d7d5 e4d5 e6d5 g1f3 g8f6 f1d3 f8d6
d2d4 d7d5 c2c4 e7e6 b1c3 g8f6 c4d5 e6d5 c1g5 f8e7
g1f3 d7d5 d2d4 e7e6 c2c4 g8f6 b1c3 b8d7 c4d5 e6d5
d2d4 d7d5 c2c4 e7e6 g1f3 g8f6 g2g3 d5c4 f1g2 b8d7
d2d4 d7d5 c2c4 e7e6 b1c3 g8f6 g1f3 b8d7 c1g5 f8e7
d2d4 d7d5 c2c4 e7e6 b1c3 g8f6 g1f3 c7c6 c1g5 f8e7
e2e4 c7c5 g1f3 d7d6 b1c3 e7e5 f1c4 f8e7 d2d3 b8c6
d2d4 g8f6 c2c4 e7e6 b1c3 f8b4 g1f3 c7c5 e2e3 b7b6
d2d4 d7d5 c2c4 c7c6 g1f3 e7e6 e2e3 g8f6 b2b3 b7b6
g1f3 g8f6 c2c4 e7e6 d2d4 d7d5 c1g5 d5c4 d1a4 b8d7
g1f3 d7d5 d2d4 e7e6 c2c4 g8f6 g2g3 d5c4 f1g2 b8d7
d2d4 g8f6 c2c4 e7e6 g1f3 d7d5 b1c3 b8d7 c1g5 c7c6
d2d4 d7d5 c2c4 e7e6 b1c3 g8f6 c1g5 d5c4 e2e4 c7c5
d2d4 g8f6 c2c4 e7e6 g1f3 d7d5 c4d5 e6d5 d1c2 c7c6
e2e4 c7c5 g1f3 e7e6 c2c3 d7d5 e4d5 d8d5 f1e2 g8f6
g1f3 g8f6 d2d4 e7e6 c2c4 d7d5 b1c3 d5c4 e2e3 a7a6
c2c4 g8f6 d2d4 e7e6 g2g3 d7d5 f1g2 b8d7 g1f3 f8e7
e2e4 c7c6 c2c4 d7d5 e4d5 c6d5 d2d4 g8f6 b1c3 e7e6
d2d4 d7d5 c2c4 d5c4 e2e3 e7e6 f1c4 a7a6 g1f3 g8f6
g1f3 g8f6 d2d4 e7e6 c2c4 d7d5 b1c3 d5c4 e2e4 f8b4
d2d4 g8f6 c2c4 e7e6 b1c3 f8b4 g1f3 b7b6 c1d2 e8g8
d2d4 g8f6 c2c4 e7e6 g1f3 d7d5 c4d5 e6d5 d1c2 f8d6
d2d4 g8f6 c2c4 e7e6 b1c3 f8b4 g1f3 e8g8 e2e3 b7b6
d2d4 g8f6 c2c4 e7e6 g2g3 f8b4 c1d2 b4e7 g1f3 e8g8
d2d4 g8f6 c2c4 e7e6 b1c3 d7d5 g1f3 c7c6 e2e3 b8d7
d2d4 g8f6 c2c4 e7e6 g1f3 d7d5 c1g5 d5c4 b1c3 c7c5
e2e4 c7c5 g1f3 b8c6 b1c3 g8f6 f1b5 d8c7 e1g1 c6d4
d2d4 g8f6 c2c4 e7e6 b1c3 d7d5 g1f3 d5c4 e2e3 a7a6
e2e4 c7c6 d2d4 d7d5 e4e5 c8f5 g1f3 e7e6 f1e2 h7h6
d2d4 g8f6 c2c4 e7e6 g1f3 d7d5 b1c3 d5c4 e2e3 c7c5
d2d4 g8f6 c2c4 e7e6 b1c3 f8b4 e2e3 e8g8 a2a3 b4c3
e2e4 c7c5 g1f3 b8c6 f1b5 g8f6 b5c6 d7c6 d2d3 d8c7
d2d4 g8f6 g1f3 d7d5 c2c4 e7e6 b1c3 f8e7 c1f4 e8g8
e2e4 e7e5 g1f3 b8c6 f1c4 f8c5 b1c3 g8f6 d2d3 e8g8
d2d4 d7d5 c2c4 c7c6 b1c3 g8f6 g1f3 e7e6 c1g5 b8d7
d2d4 g8f6 c2c4 c7c6 b1c3 d7d5 g1f3 d5c4 a2a4 c8f5
d2d4 g8f6 c2c4 e7e6 b1c3 f8b4 g1f3 b7b6 c1d2 c8b7
g1f3 g8f6 d2d4 e7e6 c2c4 d7d5 b1c3 c7c6 e2e3 b8d7
d2d4 g8f6 c2c4 e7e6 g1f3 d7d5 b1c3 a7a6 c4d5 e6d5
d2d4 g8f6 c2c4 e7e6 g1f3 d7d5 b1c3 f8e7 c4d5 e6d5
d2d4 g8f6 g1f3 d7d5 c2c4 e7e6 b1c3 f8e7 g2g3 e8g8
d2d4 g8f6 c2c4 e7e6 g1f3 d7d5 b1c3 b8d7 d1c2 c7c6
e2e4 c7c5 g1f3 b8c6 d2d4 c5d4 f3d4 e7e6 c1f4 d7d6
e2e4 c7c5 g1f3 b8c6 b1c3 e7e5 f1c4 f8e7 a2a4 d7d6
d2d4 d7d5 g1f3 e7e6 c2c4 g8f6 b1c3 d5c4 e2e4 f8b4
d2d4 g8f6 g1f3 e7e6 c2c4 d7d5 b1c3 b8d7 c4d5 e6d5
d2d4 g8f6 g1f3 d7d5 c2c4 e7e6 b1c3 d5c4 e2e4 f8b4
g1f3 g8f6 c2c4 e7e6 d2d4 d7d5 b1c3 d5c4 e2e3 a7a6
e2e4 c7c6 d2d4 d7d5 e4e5 c6c5 g1f3 c5d4 f3d4 b8c6
d2d4 g8f6 c2c4 e7e6 g1f3 d7d5 e2e3 b7b6 f1d3 f8d6
d2d4 g8f6 g1f3 e7e6 c2c4 d7d5 g2g3 d5c4 f1g2 c7c6
d2d4 d7d5 c2c4 d5c4 g1f3 a7a6 e2e3 e7e6 f1c4 c7c5
e2e4 e7e5 g1f3 b8c6 f1c4 f8c5 d2d3 a7a6 e1g1 d7d6
e2e4 c7c5 g1f3 b8c6 b1c3 e7e6 d2d4 c5d4 f3d4 d8c7
e2e4 e7e5 g1f3 b8c6 f1c4 f8c5 d2d3 g8f6 c2c3 a7a5
d2d4 g8f6 c2c4 e7e6 g1f3 d7d5 c1g5 b8d7 b1c3 h7h6
d2d4 g8f6 g1f3 e7e6 c2c4 d7d5 b1c3 f8e7 c1f4 e8g8
g1f3 d7d5 d2d4 g8f6 c2c4 e7e6 b1c3 b8d7 d1c2 d5c4
e2e4 c7c5 g1f3 b8c6 b1c3 e7e5 f1c4 g7g6 e1g1 d7d6
e2e4 c7c5 g1f3 e7e6 d2d4 c5d4 f3d4 b8c6 f1e2 g8f6
e2e4 c7c5 g1f3 b8c6 b1c3 g7g6 d2d4 c5d4 f3d4 f8g7
d2d4 g8f6 c2c4 e7e6 g1f3 b7b6 a2a3 c8b7 b1c3 d7d5
d2d4 g8f6 c2c4 e7e6 g1f3 d7d5 g2g3 d5c4 f1g2 c7c6
d2d4 g8f6 c2c4 e7e6 g1f3 f8e7 b1c3 d7d5 c1f4 e8g8
e2e4 c7c5 g1f3 d7d6 d2d4 g8f6 f1b5 c8d7 b5d7 d8d7
e2e4 c7c5 g1f3 d7d6 b1c3 g8f6 d2d4 c5d4 f3d4 a7a6
e2e4 e7e5 g1f3 b8c6 f1c4 f8c5 d2d3 g8f6 c2c3 a7a6
e2e4 c7c5 g1f3 e7e6 d2d4 c5d4 f3d4 b8c6 g2g3 f8c5
e2e4 e7e5 g1f3 b8c6 f1c4 f8c5 d2d3 d7d6 c2c3 g8f6
e2e4 e7e6 d2d4 d7d5 e4e5 c7c5 c2c3 g8e7 f1d3 b8c6
e2e4 e7e5 g1f3 b8c6 f1b5 a7a6 b5a4 g8f6 e1g1 d7d6
d2d4 g8f6 c2c4 e7e6 g1f3 d7d5 c4d5 e6d5 b1c3 c8f5
d2d4 g8f6 c2c4 e7e6 g1f3 d7d5 g2g3 d5c4 f1g2 b8d7
d2d4 g8f6 c2c4 c7c6 b1c3 d7d5 c4d5 c6d5 g1f3 c8d7
d2d4 g8f6 g1f3 d7d5 c2c4 e7e6 b1c3 b8d7 c4d5 e6d5
d2d4 g8f6 g1f3 d7d5 c2c4 d5c4 b1c3 e7e6 e2e4 f8b4
d2d4 g8f6 c2c4 e7e6 b1c3 f8b4 g1f3 e8g8 c1d2 c7c5
d2d4 g8f6 g1f3 e7e6 c2c4 d7d5 b1c3 f8e7 c1f4 d5c4
d2d4 g8f6 c2c4 e7e6 g1f3 f8e7 c1f4 d7d5 e2e3 e8g8
c2c4 g8f6 d2d4 e7e6 g2g3 f8b4 c1d2 b4e7 g1f3 d7d5
d2d4 g8f6 c2c4 e7e6 b1c3 f8b4 d1c2 d7d5 c4d5 e6d5
e2e4 e7e5 g1f3 b8c6 f1c4 f8c5 c2c3 g8f6 b2b4 c5e7
d2d4 g8f6 g1f3 e7e6 c2c4 d7d5 b1c3 d5c4 e2e3 a7a6
e2e4 c7c5 g1f3 d7d6 d2d4 g8f6 d4c5 d8a5 c1d2 a5c5
d2d4 g8f6 c2c4 e7e6 g1f3 b7b6 g2g3 c8a6 b1d2 f8b4
c2c4 e7e5 g2g3 g8f6 f1g2 f8c5 b1c3 e8g8 g1f3 b8c6
d2d4 d7d5 c2c4 e7e6 g1f3 g8f6 b1c3 b8d7 c4d5 e6d5
g1f3 d7d5 d2d4 e7e6 c2c4 g8f6 b1c3 c7c6 e2e3 b8d7
e2e4 c7c6 d2d4 d7d5 e4d5 c6d5 f1d3 g8f6 c2c3 b8c6
e2e4 e7e5 g1f3 b8c6 f1c4 f8c5 b1c3 g8f6 d2d3 a7a6
e2e4 e7e5 g1f3 b8c6 f1c4 f8c5 d2d3 g8f6 b1c3 a7a6
d2d4 g8f6 c2c4 e7e6 b1c3 f8b4 e2e3 e8g8 f1d3 c7c5
e2e4 e7e5 g1f3 b8c6 f1c4 f8c5 d2d3 g8f6 b1c3 h7h6
d2d4 g8f6 c2c4 e7e6 g2g3 d7d5 f1g2 d5c4 d1a4 b8d7
g1f3 g8f6 d2d4 e7e6 c2c4 b7b6 g2g3 c8a6 b2b3 d7d5
d2d4 g8f6 c2c4 e7e6 b1c3 d7d5 g1f3 b8d7 c1g5 h7h6
e2e4 c7c5 g1f3 d7d6 d2d4 g8f6 d4c5 f6e4 c5d6 b8c6
d2d4 d7d5 c2c4 c7c6 b1c3 e7e6 e2e4 d5e4 c3e4 f8b4
g1f3 d7d5 d2d4 g8f6 c2c4 e7e6 b1c3 c7c6 c1g5 h7h6
e2e4 e7e5 g1f3 b8c6 f1c4 f8c5 c2c3 g8f6 d2d3 d7d6
c2c4 e7e6 d2d4 d7d5 b1c3 g8f6 c1g5 f8e7 g1f3 h7h6
e2e4 c7c5 g1f3 e7e6 d2d4 c5d4 f3d4 a7a6 f1d3 f8c5
e2e4 e7e5 g1f3 g8f6 f3e5 d7d6 e5f3 f6e4 c2c4 b8c6
d2d4 c7c6 c2c4 d7d5 g1f3 g8f6 b1c3 e7e6 c1g5 f8e7
e2e4 c7c5 g1f3 d7d6 b1c3 e7e5 f1c4 f8e7 d2d3 g8f6
e2e4 e7e5 g1f3 b8c6 f1b5 g8f6 d2d3 d7d6 e1g1 f8e7
e2e4 c7c6 c2c4 d7d5 e4d5 g8f6 d2d4 c6d5 b1c3 b8c6
e2e4 c7c6 d2d4 d7d5 e4e5 c8f5 g1f3 e7e6 f1e2 g8e7
d2d4 g8f6 c2c4 c7c6 b1c3 d7d5 g1f3 e7e6 c1g5 b8d7
g1f3 g8f6 c2c4 e7e6 d2d4 d7d5 b1c3 c7c6 c1g5 f8e7
e2e4 c7c5 g1f3 b8c6 b1c3 g8f6 d2d4 c5d4 f3d4 e7e6
g1f3 e7e6 e2e4 d7d5 e4d5 e6d5 d2d4 g8f6 f1d3 f8e7
d2d4 g8f6 c2c4 e7e6 g1f3 d7d5 e2e3 b7b6 a2a3 f8e7
d2d4 g8f6 c2c4 e7e6 g2g3 d7d5 g1f3 f8b4 c1d2 a7a5
d2d4 g8f6 c2c4 e7e6 g1f3 d7d5 b1c3 b8d7 d1c2 c7c5
d2d4 d7d5 c2c4 e7e6 g1f3 g8f6 b1c3 d5c4 e2e4 f8b4
d2d4 g8f6 c2c4 e7e6 b1c3 f8b4 d1c2 e8g8 e2e3 c7c5
d2d4 g8f6 c2c4 e7e6 g2g3 f8b4 b1d2 d7d5 a2a3 b4e7
e2e4 c7c6 d2d4 d7d5 b1c3 d5e4 c3e4 g8f6 e4f6 e7f6
d2d4 g8f6 c2c4 e7e6 g1f3 d7d5 b1c3 c7c6 c1g5 d5c4
d2d4 g8f6 c2c4 e7e6 g1f3 d7d5 c4d5 e6d5 b1c3 f8e7
d2d4 g8f6 c2c4 e7e6 b1c3 f8b4 c1d2 e8g8 e2e3 b7b6
d2d4 g8f6 g1f3 e7e6 c2c4 d7d5 b1c3 c7c6 e2e3 b8d7
d2d4 g8f6 g1f3 e7e6 c2c4 d7d5 b1c3 c7c6 c1g5 d5c4
d2d4 d7d5 c2c4 d5c4 e2e3 e7e6 f1c4 g8f6 g1f3 c7c5
d2d4 g8f6 c2c4 c7c6 g1f3 d7d5 c4d5 c6d5 b1c3 c8d7
e2e4 c7c5 g1f3 b8c6 f1b5 e7e6 e1g1 g8e7 f1e1 a7a6
g1f3 g8f6 d2d4 d7d5 c2c4 e7e6 b1c3 b8d7 c1f4 d5c4
d2d4 g8f6 c2c4 e7e6 b1c3 f8b4 e2e3 e8g8 c1d2 d7d5
d2d4 g8f6 c2c4 e7e6 g1f3 d7d5 b1c3 f8e7 g2g3 e8g8
d2d4 g8f6 c2c4 e7e6 b1c3 f8b4 g1f3 b7b6 d1c2 c8b7
d2d4 d7d5 c2c4 c7c6 g1f3 g8f6 b1c3 e7e6 e2e3 b8d7
d2d4 g8f6 c2c4 e7e6 b1c3 d7d5 g1f3 b8d7 c1g5 f8e7
g1f3 d7d5 d2d4 e7e6 c2c4 g8f6 b1c3 c7c6 c1g5 b8d7
e2e4 e7e5 g1f3 b8c6 f1b5 a7a6 b5a4 f8c5 c2c3 g8f6
e2e4 e7e5 g1f3 b8c6 f1b5 f8c5 e1g1 d7d6 c2c3 a7a6
d2d4 g8f6 c2c4 e7e6 g1f3 f8e7 c1f4 e8g8 b1c3 d7d5
g1f3 d7d5 d2d4 e7e6 c2c4 g8f6 b1c3 f8e7 c1f4 e8g8
e2e4 e7e5 g1f3 b8c6 b1c3 g8f6 d2d4 e5d4 f3d4 f8b4
d2d4 d7d5 c2c4 e7e6 b1c3 g8f6 c1g5 f8e7 c4d5 f6d5
d2d4 g8f6 c2c4 e7e6 g1f3 d7d5 b1c3 b8d7 c4c5 b7b6
d2d4 g8f6 c2c4 e7e6 g1f3 d7d5 c1g5 d5c4 b1c3 a7a6
e2e4 c7c6 b1c3 d7d5 g1f3 c8g4 h2h3 g4f3 d1f3 e7e6
d2d4 g8f6 c2c4 c7c6 g1f3 d7d5 e2e3 c8f5 f1d3 f5d3
d2d4 g8f6 c2c4 e7e6 g1f3 d7d5 c1g5 d5c4 d1a4 b8d7
d2d4 g8f6 c2c4 e7e6 b1c3 d7d5 g1f3 b8d7 c1f4 d5c4
g1f3 d7d5 d2d4 e7e6 c2c4 d5c4 e2e3 a7a6 f1c4 c7c5
d2d4 g8f6 c2c4 e7e6 g1f3 d7d5 e2e3 b7b6 b2b3 c8b7
d2d4 g8f6 g1f3 e7e6 c2c4 d7d5 b1c3 c7c6 c1g5 h7h6
d2d4 d7d5 c2c4 d5c4 g1f3 e7e6 e2e3 a7a6 f1c4 g8f6
c2c4 g8f6 d2d4 e7e6 g1f3 d7d5 b1c3 f8e7 c1f4 e8g8
d2d4 g8f6 c2c4 e7e6 b1c3 f8b4 g1f3 b7b6 c1d2 d8e7
e2e4 e7e5 g1f3 b8c6 f1b5 g8f6 d2d3 d7d6 c2c3 g7g6
e2e4 e7e5 g1f3 b8c6 b1c3 g8f6 f1b5 f8d6 d2d3 e8g8
g1f3 g8f6 d2d4 d7d5 c2c4 e7e6 b1c3 d5c4 e2e4 f8b4
g1f3 d7d5 d2d4 g8f6 c2c4 c7c6 e2e3 c8f5 f1d3 f5d3
d2d4 d7d5 c2c4 c7c6 b1c3 g8f6 c4d5 c6d5 g1f3 b8c6
d2d4 g8f6 c2c4 e7e6 b1c3 f8b4 g1f3 c7c5 g2g3 e8g8
g1f3 g8f6 c2c4 e7e6 d2d4 d7d5 b1c3 c7c6 e2e3 b8d7
d2d4 g8f6 c2c4 e7e6 g1f3 d7d5 b1c3 f8b4 c1g5 d5c4
d2d4 d7d5 c2c4 c7c6 b1c3 d5c4 e2e3 b7b5 a2a4 b5b4
d2d4 g8f6 c2c4 e7e6 b1c3 f8b4 d1c2 e8g8 e2e4 d7d5
g1f3 g8f6 d2d4 d7d5 c2c4 e7e6 b1c3 f8e7 c1f4 e8g8
d2d4 d7d5 c2c4 e7e6 b1c3 g8f6 g1f3 a7a6 c4d5 e6d5
g1f3 d7d5 d2d4 g8f6 c2c4 e7e6 b1c3 b8d7 c4d5 e6d5
d2d4 g8f6 c2c4 e7e6 g1f3 b7b6 a2a3 d7d5 c4d5 e6d5
g1f3 d7d5 d2d4 e7e6 c2c4 g8f6 b1c3 d5c4 e2e4 f8b4
d2d4 g8f6 c2c4 e7e6 g1f3 d7d5 b1c3 d5c4 c1g5 a7a6
e2e4 c7c6 g1f3 d7d5 d2d3 e7e6 f1e2 b8d7 b1d2 d8c7
g1f3 g8f6 c2c4 e7e6 d2d4 d7d5 b1c3 b8d7 c1f4 d5c4
e2e4 c7c5 g1f3 d7d6 d2d4 g8f6 b1c3 c5d4 f3d4 b8c6
g1f3 g8f6 d2d4 d7d5 c2c4 c7c6 b1c3 e7e6 c1g5 h7h6
g1f3 c7c5 e2e4 d7d6 d2d4 c5d4 f3d4 g8f6 b1c3 a7a6
d2d4 g8f6 c2c4 e7e6 g1f3 d7d5 b1c3 c7c6 e2e3 f8e7
d2d4 g8f6 c2c4 e7e6 b1c3 f8b4 e2e3 e8g8 d1c2 c7c5
d2d4 g8f6 c2c4 e7e6 g1f3 d7d5 b1c3 f8b4 c1g5 h7h6
d2d4 d7d5 c2c4 e7e6 b1c3 g8f6 g1f3 f8e7 c1g5 e8g8
d2d4 d7d5 c2c4 e7e6 b1c3 g8f6 g1f3 c7c6 e2e3 b8d7
e2e4 e7e5 g1f3 b8c6 f1b5 a7a6 b5a4 g8f6 e1g1 f8c5
d2d4 d7d5 c2c4 e7e6 b1c3 g8f6 g1f3 b8d7 c1g5 f8b4
d2d4 g8f6 c2c4 e7e6 g1f3 b7b6 g2g3 f8b4 c1d2 b4d2
d2d4 d7d5 c2c4 e7e6 b1c3 g8f6 g1f3 f8b4 d1b3 c7c5
g1f3 g8f6 c2c4 e7e6 g2g3 d7d5 d2d4 f8b4 c1d2 b4e7
g1f3 e7e6 d2d4 d7d5 c2c4 g8f6 b1c3 b8d7 c1f4 d5c4
e2e4 c7c5 g1f3 e7e6 f1e2 b8c6 d2d4 c5d4 f3d4 g8f6
g1f3 g8f6 c2c4 c7c5 b1c3 e7e6 g2g3 d7d5 c4d5 e6d5
e2e4 c7c6 g1f3 d7d5 b1c3 d5e4 c3e4 g8f6 d1e2 f6e4
d2d4 g8f6 c2c4 e7e6 g1f3 d7d5 b1c3 d5c4 c1g5 c7c5
e2e4 c7c5 g1f3 e7e6 c2c3 b8c6 d2d4 d7d5 e4e5 g8e7
e2e4 e7e6 d2d4 d7d5 e4e5 c7c5 c2c3 c8d7 g1f3 g8e7
d2d4 g8f6 c2c4 e7e6 g1f3 d7d5 b1c3 f8e7 c1g5 e8g8
d2d4 d7d5 c2c4 c7c6 b1c3 g8f6 e2e3 c8f5 c4d5 c6d5
c2c4 e7e5 g2g3 g8f6 f1g2 f8c5 b1c3 e8g8 e2e3 c7c6
d2d4 e7e6 c2c4 g8f6 b1c3 d7d5 g1f3 d5c4 e2e4 f8b4
c2c4 g8f6 d2d4 e7e6 g1f3 d7d5 b1c3 b8d7 c1g5 f8e7
d2d4 g8f6 c2c4 e7e6 b1c3 f8b4 g1f3 e8g8 d1b3 c7c5
d2d4 d7d5 c2c4 d5c4 g1f3 g8f6 e2e3 e7e6 f1c4 c7c5
d2d4 d7d5 c2c4 e7e6 g1f3 g8f6 b1c3 c7c6 c1g5 b8d7
g1f3 d7d5 d2d4 g8f6 c2c4 e7e6 c4d5 e6d5 b1c3 c7c6
d2d4 g8f6 c2c4 c7c6 e2e3 d7d5 g1f3 c8f5 f1d3 f5d3
d2d4 d7d5 c2c4 d5c4 e2e3 e7e6 f1c4 g8f6 g1f3 a7a6
d2d4 d7d5 c2c4 e7e6 g1f3 g8f6 g2g3 f8b4 c1d2 b4e7
e2e4 c7c6 d2d4 d7d5 b1d2 d5e4 d2e4 g8f6 e4f6 e7f6
d2d4 g8f6 c2c4 e7e6 g1f3 d7d5 c1g5 f8e7 b1c3 h7h6
e2e4 e7e5 g1f3 b8c6 f1b5 g8f6 d2d3 f8c5 e1g1 c6d4
g1f3 d7d5 d2d4 g8f6 c2c4 e7e6 b1c3 f8e7 c1f4 e8g8
d2d4 g8f6 c2c4 e7e6 b1c3 d7d5 c1g5 f8e7 c4d5 e6d5
e2e4 e7e5 g1f3 b8c6 f1b5 g8f6 d2d3 f8c5 c2c3 e8g8
e2e4 c7c5 g1f3 b8c6 b1c3 d7d6 d2d4 c5d4 f3d4 g8f6
c2c4 g8f6 d2d4 e7e6 g1f3 d7d5 b1c3 d5c4 e2e4 f8b4
e2e4 c7c5 g1f3 d7d6 d2d4 c5d4 f3d4 g8f6 f2f3 e7e5
d2d4 g8f6 c2c4 e7e6 g1f3 d7d5 c4d5 e6d5 d1c2 b8c6
e2e4 c7c5 g1f3 b8c6 d2d4 c5d4 f3d4 e7e6 b1c3 a7a6
d2d4 d7d5 c2c4 e7e6 b1c3 g8f6 g1f3 c7c6 e2e3 f8e7
d2d4 g8f6 c2c4 e7e6 g2g3 f8b4 c1d2 b4e7 f1g2 e8g8
e2e4 e7e5 g1f3 b8c6 f1b5 f8c5 c2c3 c5b6 d2d4 g8f6
d2d4 g8f6 c2c4 e7e6 g2g3 d7d5 f1g2 b8d7 g1f3 d5c4
d2d4 d7d5 c2c4 d5c4 e2e3 a7a6 f1c4 g8f6 g1f3 e7e6
d2d4 g8f6 c2c4 e7e6 b1c3 f8b4 e2e3 c7c5 f1d3 d7d5
d2d4 d7d5 c2c4 c7c6 g1f3 g8f6 b1c3 e7e6 c1g5 b8d7
e2e4 c7c5 b1c3 a7a6 g1f3 e7e6 d2d4 c5d4 f3d4 b7b5
g1f3 d7d5 d2d4 g8f6 c2c4 e7e6 g2g3 f8b4 c1d2 b4e7
e2e4 e7e5 g1f3 b8c6 b1c3 g8f6 f1b5 c6d4 b5c4 d4f3
d2d4 d7d5 g1f3 g8f6 c2c4 c7c6 b1c3 e7e6 e2e3 b8d7
g1f3 g8f6 d2d4 e7e6 c2c4 d7d5 b1c3 f8e7 c1g5 h7h6
d2d4 g8f6 c2c4 e7e6 g1f3 b7b6 a2a3 c8b7 c1f4 f8d6
d2d4 g8f6 c2c4 e7e6 g1f3 d7d5 b1c3 c7c5 c4d5 c5d4
g1f3 e7e6 c2c4 d7d5 d2d4 g8f6 b1c3 d5c4 e2e3 a7a6
e2e4 c7c6 d2d4 d7d5 e4e5 c8f5 g1f3 e7e6 f1e2 b8d7
d2d4 g8f6 g1f3 e7e6 c2c4 b7b6 g2g3 c8a6 b2b3 d7d5
g1f3 d7d5 d2d4 g8f6 c2c4 e7e6 b1c3 c7c6 c1g5 b8d7
e2e4 e7e5 g1f3 b8c6 f1c4 f8c5 d2d3 a7a6 f3g5 g8h6
e2e4 c7c5 g1f3 e7e6 c2c3 d7d5 e4d5 d8d5 f1e2 b8c6
e2e4 e7e5 g1f3 b8c6 f1c4 f8c5 d2d3 g8f6 h2h3 e8g8
d2d4 g8f6 c2c4 e7e6 g1f3 d7d5 g2g3 f8b4 c1d2 a7a5
d2d4 g8f6 g1f3 d7d5 c2c4 e7e6 g2g3 f8b4 c1d2 b4e7
d2d4 d7d5 c2c4 e7e6 g1f3 g8f6 b1c3 b8d7 c1g5 f8e7
d2d4 g8f6 c2c4 e7e6 g1f3 f8b4 c1d2 b4e7 b1c3 d7d5
c2c4 g8f6 d2d4 e7e6 b1c3 f8b4 d1c2 e8g8 g1f3 c7c5
e2e4 c7c5 g1f3 b8c6 f1b5 e7e6 c2c3 d7d5 d2d3 g8e7
g1f3 g8f6 c2c4 e7e6 d2d4 d7d5 b1c3 f8e7 c1f4 e8g8
g1f3 e7e6 c2c4 g8f6 d2d4 d7d5 b1c3 f8e7 c1f4 e8g8
d2d4 g8f6 c2c4 e7e6 b1c3 d7d5 g1f3 c7c6 c1g5 h7h6
g1f3 g8f6 d2d4 e7e6 c2c4 d7d5 b1c3 f8e7 c1f4 e8g8
g1f3 d7d5 d2d4 e7e6 c2c4 g8f6 b1c3 f8b4 c1g5 d5c4
g1f3 g8f6 d2d4 d7d5 c2c4 c7c6 b1c3 e7e6 c1g5 b8d7
e2e4 e7e5 g1f3 b8c6 f1b5 a7a6 b5a4 d7d6 c2c3 g8f6
g1f3 g8f6 c2c4 e7e6 d2d4 d7d5 g2g3 f8b4 c1d2 b4e7
e2e4 c7c6 b1c3 d7d5 g1f3 g8f6 e4e5 f6e4 d2d4 e4c3
c2c4 g8f6 d2d4 e7e6 g1f3 d7d5 b1c3 b8d7 c4d5 e6d5
g1f3 c7c5 c2c4 g8f6 b1c3 b8c6 d2d4 c5d4 f3d4 e7e6
g1f3 e7e6 e2e4 d7d5 e4d5 e6d5 d2d4 f8d6 c2c4 g8f6
d2d4 g8f6 c2c4 e7e6 g1f3 d7d5 b1c3 f8e7 c1f4 c7c5
d2d4 g8f6 c2c4 e7e6 g2g3 d7d5 f1g2 b8d7 b1d2 a7a5
d2d4 g8f6 c2c4 c7c6 g1f3 d7d5 b1c3 d5c4 a2a4 e7e6
g1f3 g8f6 d2d4 d7d5 c2c4 e7e6 b1c3 d5c4 e2e3 a7a6
e2e4 c7c5 g1f3 e7e6 d2d4 c5d4 f3d4 a7a6 c2c4 f8b4
d2d4 g8f6 c2c4 e7e6 b1c3 f8b4 d1c2 e8g8 e2e3 d7d5
g1f3 d7d5 d2d4 g8f6 c1g5 c7c5 e2e3 f6e4 g5f4 d8b6
e2e4 c7c5 d2d4 c5d4 g1f3 a7a6 f3d4 g8f6 f1d3 b8c6
d2d4 g8f6 c2c4 e7e6 g2g3 d7d5 g1f3 d5c4 f1g2 c7c6
d2d4 d7d5 c2c4 c7c6 g1f3 g8f6 e2e3 c8f5 f1d3 f5d3
d2d4 d7d5 c2c4 d5c4 g1f3 a7a6 e2e3 g8f6 f1c4 c7c5
e2e4 c7c5 g1f3 e7e6 d2d4 c5d4 f3d4 b8c6 d4b5 d7d6
e2e4 c7c5 g1f3 b8c6 f1b5 e7e6 b5a4 g8e7 e1g1 a7a6
e2e4 e7e5 g1f3 b8c6 f1b5 g8e7 b1c3 e7g6 d2d4 e5d4
e2e4 c7c6 g1f3 d7d5 b1c3 c8g4 h2h3 g4f3 d1f3 g8f6
d2d4 d7d5 c2c4 e7e6 b1c3 g8f6 g1f3 b8d7 c1f4 f8b4
e2e4 c7c5 g1f3 b8c6 b1c3 e7e5 f1c4 f8e7 d2d3 g8f6
d2d4 g8f6 g1f3 e7e6 c2c4 d7d5 b1c3 c7c6 c1g5 f8e7
e2e4 e7e5 g1f3 b8c6 f1b5 f8c5 c2c3 g8f6 d2d4 e5d4
d2d4 g8f6 c2c4 e7e6 g1f3 d7d5 g2g3 d5c4 f1g2 f8b4
e2e4 c7c5 g1f3 b8c6 b1c3 e7e6 d2d4 c5d4 f3d4 a7a6
e2e4 c7c5 g1f3 d7d6 b1c3 a7a6 d2d4 c5d4 f3d4 g8f6
c2c4 g8f6 d2d4 e7e6 b1c3 f8b4 g1f3 b7b6 e2e3 c8b7
e2e4 c7c6 d2d4 d7d5 e4e5 c8f5 g1f3 e7e6 f1e2 a7a6
d2d4 g8f6 c2c4 c7c6 g1f3 d7d5 b1c3 e7e6 e2e3 b8d7
e2e4 e7e5 g1f3 g8f6 f3e5 d7d6 e5f3 f6e4 f1d3 e4f6
e2e4 e7e5 g1f3 b8c6 b1c3 g8f6 f1b5 f8c5 e1g1 e8g8
e2e4 c7c6 b1c3 d7d5 d2d4 d5e4 c3e4 g8f6 e4f6 e7f6
e2e4 c7c6 g1f3 d7d5 b1c3 c8g4 d2d4 g8f6 h2h3 g4f3
e2e4 e7e5 g1f3 b8c6 f1c4 f8c5 d2d3 a7a6 c2c3 g8f6
c2c4 e7e6 d2d4 d7d5 b1c3 g8f6 g1f3 b8d7 c1g5 f8e7
d2d4 d7d5 c2c4 e7e6 b1c3 g8f6 g1f3 b8d7 c1g5 c7c6
g1f3 g8f6 d2d4 d7d5 c2c4 d5c4 e2e3 e7e6 f1c4 a7a6
d2d4 g8f6 c2c4 e7e6 g2g3 d7d5 f1g2 f8b4 c1d2 a7a5
e2e4 c7c5 g1f3 b8c6 b1c3 e7e5 f1c4 d7d6 d2d3 f8e7
d2d4 e7e6 e2e4 d7d5 b1c3 g8f6 c1g5 d5e4 c3e4 b8d7
e2e4 c7c6 d2d4 d7d5 e4e5 c6c5 g1f3 c5d4 d1d4 b8c6
g1f3 g8f6 c2c4 e7e6 d2d4 d7d5 b1c3 b8d7 c1g5 f8e7
g1f3 d7d5 d2d4 g8f6 c2c4 e7e6 b1c3 b8d7 c1g5 f8e7
d2d4 g8f6 c2c4 e7e6 b1c3 d7d5 c1g5 f8e7 g1f3 b8d7
d2d4 d7d5 c2c4 e7e6 g1f3 g8f6 c4d5 e6d5 b1c3 c7c6
d2d4 g8f6 c2c4 c7c6 g1f3 d7d5 b1c3 d5c4 a2a4 c8f5
c2c4 g8f6 g1f3 e7e6 d2d4 d7d5 b1c3 d5c4 e2e3 a7a6
e2e4 e7e5 g1f3 b8c6 f1b5 a7a6 b5a4 b7b5 a4b3 d7d6
d2d4 g8f6 g1f3 e7e6 c2c4 d7d5 b1c3 c7c6 c1g5 b8d7
e2e4 e7e6 d2d4 d7d5 b1c3 g8f6 e4e5 f6d7 c3e2 c7c5
d2d4 g8f6 g1f3 e7e6 c2c4 d7d5 b1c3 b8d7 c1f4 d5c4
d2d4 d7d5 c2c4 d5c4 e2e3 g8f6 f1c4 e7e6 g1f3 c7c5
d2d4 g8f6 c2c4 e7e6 g1f3 d7d5 b1c3 b8d7 d1c2 d5c4
d2d4 d7d5 c2c4 c7c6 g1f3 g8f6 b1c3 e7e6 c1g5 f8e7
e2e4 c7c6 d2d4 d7d5 e4e5 c6c5 d4c5 e7e6 c2c3 b8c6
d2d4 d7d5 g1f3 g8f6 c2c4 e7e6 b1c3 d5c4 e2e3 a7a6
d2d4 e7e6 e2e4 d7d5 e4e5 c7c5 c2c3 b8c6 g1f3 g8e7
g1f3 e7e6 e2e4 d7d5 e4d5 e6d5 d2d4 g8f6 f1d3 f8d6
e2e4 c7c6 g1f3 d7d5 b1c3 c8g4 d2d4 e7e6 f1d3 g8f6
d2d4 d7d5 c2c4 c7c6 g1f3 g8f6 b1c3 e7e6 c1g5 h7h6
d2d4 g8f6 c2c4 e7e6 b1c3 f8b4 e2e3 c7c5 g1e2 d7d5
c2c4 e7e5 g2g3 d7d5 c4d5 d8d5 g1f3 b8c6 b1c3 d5d7
e2e4 e7e5 g1f3 g8f6 d2d4 f6e4 f3e5 d7d5 b1d2 f8d6
g1f3 d7d5 d2d4 g8f6 c2c4 e7e6 b1c3 b8d7 c1g5 h7h6
c2c4 e7e5 g2g3 b8c6 f1g2 f8c5 b1c3 d7d6 e2e3 c5b6
d2d4 e7e6 e2e4 d7d5 e4e5 c7c5 c2c3 b8c6 g1f3 c8d7
g1f3 e7e6 e2e4 d7d5 e4d5 e6d5 d2d4 b8c6 f1b5 f8d6
g1f3 d7d5 d2d4 g8f6 c2c4 e7e6 b1c3 f8e7 c1f4 d5c4
g1f3 g8f6 c2c4 e7e6 b1c3 d7d5 d2d4 b8d7 c1g5 h7h6
e2e4 c7c5 g1f3 b8c6 b1c3 e7e5 f1c4 d7d6 e1g1 f8e7
g1f3 g8f6 c2c4 e7e6 b1c3 d7d5 d2d4 d5c4 e2e4 f8b4
c2c4 e7e5 g2g3 c7c6 g1f3 e5e4 f3d4 d7d5 c4d5 d8d5
e2e4 c7c6 d2d4 d7d5 e4e5 c8f5 g1f3 e7e6 f1e2 f5g6
d2d4 g8f6 c2c4 e7e6 b1c3 d7d5 g1f3 c7c6 e2e3 b7b6
d2d4 g8f6 c2c4 e7e6 g2g3 f8b4 c1d2 a7a5 g1f3 d7d5
e2e4 c7c5 g1f3 a7a6 c2c3 d7d5 e4d5 d8d5 d2d4 g8f6
g1f3 g8f6 d2d4 e7e6 c2c4 d7d5 b1c3 b8d7 c1g5 c7c6
d2d4 g8f6 c2c4 c7c6 b1c3 d7d5 c4d5 c6d5 c1f4 d8b6
e2e4 c7c5 g1f3 b8c6 f1b5 e7e6 e1g1 g8e7 c2c3 a7a6
e2e4 c7c5 g1f3 b8c6 f1b5 g7g6 e1g1 f8g7 b5c6 b7c6
d2d4 g8f6 c2c4 e7e6 b1c3 f8b4 e2e3 c7c5 g1e2 c5d4
d2d4 d7d5 c2c4 c7c6 g1f3 g8f6 e2e3 c8f5 b1c3 e7e6
c2c4 e7e5 g2g3 b8c6 f1g2 g7g6 b1c3 f8g7 e2e3 d7d6
d2d4 d7d5 c2c4 e7e6 b1c3 c7c6 e2e3 g8f6 g1f3 b8d7
e2e4 e7e5 g1f3 b8c6 f1b5 a7a6 b5a4 d7d6 c2c4 c8g4
e2e4 e7e5 g1f3 b8c6 d2d4 e5d4 f3d4 d8f6 d4c6 f8c5
d2d4 g8f6 c2c4 e7e6 g1f3 d7d5 b1c3 c7c5 c4d5 f6d5
e2e4 c7c6 g1f3 d7d5 b1c3 d5e4 c3e4 g8f6 e4f6 e7f6
e2e4 c7c5 g1f3 b8c6 f1b5 e7e6 e1g1 g8e7 d2d4 c5d4
d2d4 g8f6 c2c4 c7c6 b1c3 d7d5 c4d5 c6d5 g1f3 b8c6
d2d4 g8f6 c2c4 e7e6 b1c3 f8b4 c1d2 c7c5 e2e3 c5d4
g1f3 g8f6 c2c4 e7e6 d2d4 d7d5 b1c3 b8d7 c4d5 e6d5
g1f3 e7e6 d2d4 g8f6 c2c4 d7d5 b1c3 b8d7 d1c2 c7c6
d2d4 d7d5 c2c4 c7c6 b1c3 g8f6 e2e3 e7e6 g1f3 b8d7
c2c4 c7c5 g1f3 e7e6 g2g3 d7d5 c4d5 e6d5 d2d4 g8f6
e2e4 e7e6 d2d4 d7d5 e4d5 e6d5 g1f3 g8f6 f1d3 c7c5
g1f3 g8f6 c2c4 c7c5 b1c3 e7e6 g2g3 b7b6 f1g2 c8b7
e2e4 c7c6 d2d4 d7d5 e4e5 c8f5 b1d2 e7e6 d2b3 c6c5
d2d4 d7d5 c2c4 c7c6 b1c3 g8f6 c4d5 c6d5 g1f3 e7e6
d2d4 d7d5 c2c4 e7e6 b1c3 f8e7 c4d5 e6d5 c1f4 c7c6
d2d4 d7d5 c2c4 c7c6 b1c3 g8f6 e2e3 c8f5 g1f3 e7e6
g1f3 d7d5 d2d4 g8f6 c2c4 d5c4 e2e3 a7a6 f1c4 e7e6
d2d4 g8f6 c2c4 e7e6 b1c3 f8b4 c1d2 c7c5 a2a3 b4c3
d2d4 g8f6 c2c4 c7c6 b1c3 d7d5 g1f3 a7a6 e2e3 e7e6
e2e4 c7c5 g1f3 b8c6 b1c3 g8f6 d2d4 c5d4 f3d4 d7d6
d2d4 e7e6 e2e4 d7d5 b1c3 g8f6 c1g5 d5e4 c3e4 f8e7
d2d4 d7d5 c2c4 d5c4 e2e3 g8f6 g1f3 e7e6 f1c4 c7c5
d2d4 g8f6 c2c4 e7e6 g2g3 d7d5 g1f3 d5c4 f1g2 a7a6
c2c4 g8f6 d2d4 e7e6 g1f3 d7d5 b1c3 b8d7 c1f4 d5c4
e2e4 c7c6 b1c3 d7d5 g1f3 c8g4 d2d4 g8f6 h2h3 g4f3
d2d4 g8f6 c2c4 e7e6 g1f3 d7d5 b1c3 d5c4 d1a4 c7c6
d2d4 d7d5 c2c4 e7e6 g1f3 g8f6 b1c3 c7c6 e2e3 b8d7
e2e4 c7c5 g1f3 b8c6 f1b5 g7g6 e1g1 f8g7 f1e1 e7e5
e2e4 c7c5 g1f3 b8c6 b1c3 g8f6 f1b5 c6d4 e4e5 f6g8
d2d4 g8f6 c2c4 e7e6 b1c3 d7d5 c4d5 e6d5 c1f4 c7c6
d2d4 g8f6 c2c4 e7e6 b1c3 f8b4 c1d2 b7b6 e2e3 e8g8
d2d4 g8f6 c2c4 e7e6 g1f3 d7d5 b1c3 f8e7 d1c2 e8g8
d2d4 g8f6 c2c4 e7e6 g2g3 f8b4 b1d2 d7d5 a2a3 b4d2
d2d4 g8f6 c2c4 e7e6 g1f3 d7d5 b1c3 f8b4 c4d5 e6d5
d2d4 g8f6 c2c4 e7e6 g1f3 d7d5 c1g5 f8e7 e2e3 h7h6
g1f3 g8f6 d2d4 d7d5 c2c4 e7e6 b1c3 f8b4 c4d5 e6d5
d2d4 g8f6 c2c4 e7e6 g1f3 b7b6 a2a3 c8b7 c1f4 f6e4
g1f3 e7e6 d2d4 g8f6 c2c4 d7d5 b1c3 b8d7 c1f4 d5c4
e2e4 c7c6 g1f3 d7d5 d2d3 e7e6 e4e5 c6c5 c2c3 b8c6
d2d4 d7d5 c2c4 d5c4 g1f3 e7e6 e2e3 g8f6 f1c4 c7c5
e2e4 e7e5 g1f3 b8c6 b1c3 g8f6 f1b5 c6d4 b5c4 f8c5
d2d4 d7d5 c2c4 d5c4 e2e3 c7c5 f1c4 e7e6 g1f3 g8f6
e2e4 e7e6 d2d4 d7d5 e4d5 e6d5 g1f3 f8d6 f1d3 g8f6
d2d4 g8f6 c2c4 e7e6 b1c3 f8b4 g1f3 e8g8 d1c2 c7c5
e2e4 c7c5 g1f3 b8c6 f1b5 e7e6 e1g1 g8e7 b5a4 d8c7
d2d4 g8f6 c2c4 e7e6 g1f3 d7d5 c1g5 f8e7 b1c3 e8g8
d2d4 g8f6 g1f3 d7d5 c2c4 d5c4 e2e3 a7a6 f1c4 e7e6
e2e4 e7e6 d2d4 d7d5 e4e5 c7c5 c2c3 c8d7 a2a3 b8c6
e2e4 e7e5 g1f3 b8c6 f1b5 a7a6 b5a4 f8e7 d2d4 e5d4
g1f3 d7d5 d2d4 g8f6 c2c4 e7e6 c4d5 e6d5 b1c3 f8e7
e2e4 c7c5 g1f3 b8c6 f1b5 e7e6 e1g1 g8e7 f1e1 c6d4
e2e4 c7c6 g1f3 d7d5 d2d3 c8g4 h2h3 g4h5 d1e2 e7e6
c2c4 e7e5 g2g3 g8f6 f1g2 d7d5 c4d5 f6d5 b1c3 d5b6
d2d4 g8f6 g1f3 e7e6 g2g3 c7c5 c2c4 c5d4 f3d4 f8b4
e2e4 c7c5 g1f3 d7d6 b1c3 e7e5 f1c4 b8c6 d2d3 f8e7
d2d4 g8f6 g1f3 e7e6 c2c4 d7d5 b1c3 d5c4 e2e3 c7c5
d2d4 d7d5 c2c4 c7c6 g1f3 g8f6 b1c3 d5c4 a2a4 c8f5
e2e4 c7c6 d2d4 d7d5 e4e5 c6c5 g1f3 c5d4 f3d4 e7e6
d2d4 g8f6 g1f3 d7d5 c2c4 e7e6 b1c3 b8d7 c1f4 d5c4
d2d4 g8f6 c2c4 e7e6 b1c3 d7d5 c1g5 d5c4 e2e3 c7c5
e2e4 c7c5 g1f3 b8c6 d2d4 c5d4 f3d4 e7e6 d4b5 d7d6
d2d4 d7d5 c2c4 e7e6 b1c3 g8f6 g1f3 d5c4 e2e3 c7c5
g1f3 d7d5 d2d4 e7e6 c2c4 g8f6 b1c3 d5c4 e2e3 a7a6
g1f3 e7e6 c2c4 d7d5 d2d4 g8f6 b1c3 b8d7 c4d5 e6d5
d2d4 g8f6 g1f3 d7d5 c2c4 e7e6 b1c3 b8d7 c1g5 h7h6
e2e4 c7c5 g1f3 b8c6 d2d4 c5d4 f3d4 d8b6 d4b3 g8f6
d2d4 d7d5 c2c4 d5c4 e2e3 g8f6 g1f3 a7a6 f1c4 e7e6
e2e4 c7c5 g1f3 e7e6 d2d4 c5d4 f3d4 a7a6 f1d3 b8c6
g1f3 g8f6 c2c4 e7e6 d2d4 d7d5 b1c3 c7c6 c1g5 h7h6
d2d4 g8f6 c2c4 e7e6 b1c3 f8b4 g1f3 b7b6 d1b3 c7c5
e2e4 e7e6 d2d4 d7d5 e4d5 e6d5 g1f3 f8d6 c2c4 g8f6
d2d4 d7d5 c2c4 c7c6 b1c3 g8f6 c4d5 c6d5 g1f3 a7a6
e2e4 e7e5 g1f3 b8c6 f1c4 f8c5 d2d3 a7a6 b1c3 d7d6
d2d4 d7d5 c2c4 e7e6 g1f3 g8f6 b1c3 d5c4 e2e3 c7c5
e2e4 c7c6 d2d4 d7d5 e4e5 c8f5 h2h4 h7h6 f1d3 f5d3
d2d4 d7d5 c2c4 e7e6 g1f3 g8f6 b1c3 d5c4 c1g5 c7c5
d2d4 d7d5 c2c4 e7e6 g1f3 g8f6 b1c3 a7a6 c4d5 e6d5
d2d4 d7d5 c2c4 c7c6 c4d5 c6d5 b1c3 g8f6 g1f3 c8d7
d2d4 g8f6 g1f3 d7d5 c2c4 c7c6 b1c3 e7e6 e2e3 b8d7
g1f3 g8f6 d2d4 d7d5 c2c4 e7e6 b1c3 c7c6 c1g5 b8d7
g1f3 d7d5 d2d4 g8f6 c2c4 d5c4 e2e3 e7e6 f1c4 a7a6
d2d4 g8f6 c2c4 e7e6 g1f3 d7d5 c4d5 e6d5 c1f4 c7c5
g1f3 g8f6 c2c4 e7e6 g2g3 d7d5 d2d4 d5c4 f1g2 c7c6
d2d4 g8f6 c2c4 e7e6 b1c3 f8b4 g2g3 d7d5 f1g2 e8g8
d2d4 d7d5 c2c4 c7c6 g1f3 e7e6 b1d2 g8f6 g2g3 f8e7
d2d4 d7d5 c2c4 e7e6 g1f3 d5c4 e2e3 g8f6 f1c4 a7a6
d2d4 g8f6 c2c4 e7e6 g1f3 b7b6 g2g3 c8a6 d1a4 a6b7
e2e4 c7c6 g1f3 d7d5 d2d3 d8c7 b1d2 c8g4 f1e2 d5e4
g1f3 e7e6 d2d4 g8f6 c2c4 d7d5 b1c3 d5c4 e2e4 f8b4
d2d4 g8f6 c2c4 e7e6 g1f3 d7d5 b1c3 c7c5 c4d5 e6d5
g1f3 e7e6 c2c4 d7d5 d2d4 g8f6 b1c3 c7c6 e2e3 b8d7
c2c4 e7e5 g2g3 d7d5 c4d5 d8d5 g1f3 b8c6 f1g2 g8f6
d2d4 g8f6 c2c4 e7e6 g1f3 d7d5 b1c3 b8d7 d1c2 f8e7
g1f3 g8f6 d2d4 d7d5 e2e3 e7e6 c2c4 b7b6 f1d3 c8b7
d2d4 g8f6 c2c4 e7e6 b1c3 d7d5 g1f3 f8b4 d1a4 b8c6
g1f3 g8f6 c2c4 e7e6 d2d4 d7d5 b1c3 d5c4 e2e4 f8b4
d2d4 g8f6 c2c4 e7e6 b1c3 d7d5 g1f3 c7c5 c4d5 f6d5
e2e4 c7c5 g1f3 a7a6 c2c4 e7e6 b1c3 b7b6 f1e2 c8b7
e2e4 c7c6 g1f3 d7d5 d2d3 b8d7 e4d5 c6d5 d3d4 e7e6
d2d4 e7e6 c2c4 g8f6 b1c3 f8b4 g1f3 b7b6 e2e3 e8g8
d2d4 d7d5 c2c4 e7e6 g1f3 g8f6 b1c3 b8d7 d1c2 c7c6
c2c4 e7e5 g2g3 f8c5 f1g2 g8f6 b1c3 e8g8 g1f3 b8c6
c2c4 e7e5 g2g3 b8c6 f1g2 g8f6 b1c3 f8c5 e2e3 d7d6
e2e4 e7e5 b1c3 b8c6 g1f3 g8f6 h2h3 f8b4 f1d3 e8g8
d2d4 g8f6 c2c4 e7e6 g1f3 b7b6 g2g3 c8a6 d1c2 c7c5
d2d4 g8f6 c2c4 e7e6 b1c3 f8b4 d1b3 c7c5 d4c5 b8c6
g1f3 g8f6 d2d4 d7d5 c2c4 e7e6 g2g3 f8b4 c1d2 b4e7
d2d4 g8f6 c2c4 e7e6 b1c3 d7d5 g1f3 d5c4 e2e3 c7c5
d2d4 d7d5 c2c4 d5c4 e2e3 a7a6 f1c4 e7e6 g1f3 f8e7
e2e4 c7c5 g1f3 b8c6 b1c3 g8f6 d2d4 c5d4 f3d4 e7e5
e2e4 e7e5 g1f3 b8c6 f1b5 f8c5 e1g1 g8e7 c2c3 e7g6
d2d4 d7d5 c2c4 d5c4 e2e3 a7a6 f1c4 e7e6 g1f3 g8f6
d2d4 g8f6 g1f3 e7e6 g2g3 b7b5 f1g2 c8b7 c1g5 c7c5
d2d4 g8f6 c2c4 c7c6 e2e3 d7d5 b1c3 c8f5 g1f3 e7e6
e2e4 c7c6 d2d4 d7d5 e4d5 c6d5 f1d3 e7e6 g1f3 f8d6
g1f3 g8f6 c2c4 e7e6 b1c3 d7d5 d2d4 b8d7 c1g5 f8e7
d2d4 d7d5 c2c4 d5c4 g1f3 e7e6 e2e3 g8f6 f1c4 a7a6
e2e4 c7c6 g1f3 d7d5 d2d3 d5e4 d3e4 d8d1 e1d1 g8f6
g1f3 e7e6 c2c4 g8f6 b1c3 d7d5 d2d4 b8d7 c1g5 h7h6
c2c4 e7e5 g2g3 g8f6 f1g2 c7c6 d2d4 e5d4 d1d4 b8a6
d2d4 g8f6 c2c4 e7e6 b1c3 f8b4 c1d2 c7c5 g1f3 c5d4
e2e4 e7e5 g1f3 b8c6 f1b5 f8e7 e1g1 a7a6 b5a4 g8f6
d2d4 g8f6 c2c4 e7e6 b1c3 f8b4 g2g3 e8g8 f1g2 d7d5
d2d4 g8f6 c2c4 c7c6 b1c3 d7d5 c4d5 c6d5 g1f3 a7a6
d2d4 g8f6 c2c4 e7e6 g1f3 d7d5 b1c3 b8d7 e2e3 f8e7
e2e4 c7c6 d2d4 d7d5 e4e5 c8f5 b1d2 e7e6 d2b3 b8d7
e2e4 c7c5 g1f3 e7e6 d2d4 c5d4 f3d4 a7a6 f1d3 d8c7
d2d4 g8f6 c2c4 e7e6 b1c3 d7d5 c1g5 f8e7 g1f3 e8g8
d2d4 g8f6 c2c4 e7e6 c1f4 d7d5 b1c3 d5c4 e2e3 c7c5
c2c4 g8f6 g1f3 e7e6 d2d4 d7d5 b1c3 d5c4 e2e4 f8b4
c2c4 e7e5 g2g3 c7c6 d2d4 e5d4 d1d4 g8f6 f1g2 b8a6
g1f3 e7e6 c2c4 g8f6 d2d4 d7d5 b1c3 b8d7 c1g5 h7h6
e2e4 e7e6 d2d4 d7d5 b1d2 c7c5 e4d5 e6d5 g1f3 g8f6
d2d4 g8f6 c2c4 c7c6 g1f3 d7d5 c4d5 c6d5 b1c3 e7e6
e2e4 c7c6 d2d4 d7d5 b1c3 d5e4 c3e4 b8d7 e4g5 e7e6
e2e4 c7c5 g1f3 b8c6 f1b5 g8f6 b1c3 d8c7 e1g1 c6d4
e2e4 c7c6 b1c3 d7d5 g1f3 c8g4 d2d4 e7e6 h2h3 g4f3
g1f3 e7e6 d2d4 d7d5 c2c4 g8f6 b1c3 b8d7 c4d5 e6d5
e2e4 c7c5 g1f3 b8c6 f1b5 g7g6 e1g1 f8g7 c2c3 e7e5
d2d4 g8f6 g1f3 e7e6 c2c4 b7b6 g2g3 c8a6 b2b3 f8b4
d2d4 g8f6 c2c4 e7e6 g1f3 f8e7 g2g3 e8g8 f1g2 d7d5
g1f3 d7d5 d2d4 c7c6 c1f4 c8f5 e2e3 e7e6 c2c4 f8d6
d2d4 d7d5 c2c4 c7c6 b1c3 g8f6 g1f3 d5c4 a2a4 e7e6
d2d4 g8f6 c2c4 e7e6 g2g3 d7d5 g1f3 f8e7 f1g2 e8g8
d2d4 d7d5 c2c4 d5c4 e2e4 e7e5 g1f3 e5d4 f1c4 b8c6
e2e4 c7c5 g1f3 b8c6 d2d4 c5d4 f3d4 d8c7 c2c4 e7e6
e2e4 c7c5 g1f3 b8c6 d2d4 c5d4 f3d4 e7e5 d4b5 g8f6
c2c4 g8f6 d2d4 e7e6 b1c3 f8b4 g1f3 b7b6 e2e3 e8g8
g1f3 e7e6 c2c4 g8f6 d2d4 d7d5 b1c3 b8d7 c1g5 f8e7
g1f3 c7c5 e2e4 e7e6 d2d4 c5d4 f3d4 b8c6 b1c3 d8c7
d2d4 g8f6 c2c4 e7e6 b1c3 f8b4 e2e3 e8g8 d1c2 d7d5
g1f3 g8f6 d2d4 e7e6 c2c4 d7d5 b1c3 b8d7 c1f4 d5c4
e2e4 c7c6 b1c3 d7d5 g1f3 c8g4 d2d4 e7e6 f1d3 g8f6
e2e4 c7c6 d2d4 d7d5 e4e5 c6c5 d4c5 e7e6 c2c3 b8d7
e2e4 e7e6 d2d4 d7d5 e4d5 e6d5 g1f3 f8d6 f1d3 g8e7
e2e4 c7c5 g1f3 e7e6 d2d4 c5d4 f3d4 b8c6 d1d3 g8f6
g1f3 e7e6 c2c4 d7d5 d2d4 g8f6 g2g3 d5c4 f1g2 b8d7
g1f3 g8f6 c2c4 e7e6 b1c3 d7d5 d2d4 b8d7 e2e3 f8e7
g1f3 e7e6 c2c4 g8f6 d2d4 d7d5 b1c3 f8e7 c1g5 h7h6
e2e4 c7c5 g1f3 e7e6 c2c3 d7d5 e4d5 d8d5 b1a3 b8c6
e2e4 c7c6 c2c4 d7d5 e4d5 c6d5 d2d4 g8f6 b1c3 b8c6
d2d4 d7d5 c2c4 c7c6 g1f3 e7e6 b1d2 g8f6 e2e3 f8e7
d2d4 d7d5 g1f3 e7e6 c2c4 g8f6 b1c3 b8d7 c4d5 e6d5
c2c4 g8f6 d2d4 c7c6 b1c3 d7d5 g1f3 e7e6 c1g5 b8d7
d2d4 d7d5 c2c4 e7e6 g1f3 d5c4 e2e3 a7a6 f1c4 g8f6
d2d4 g8f6 c2c4 e7e6 g2g3 f8b4 b1d2 e8g8 a2a3 b4e7
d2d4 g8f6 c2c4 e7e6 g1f3 d7d5 b1c3 b8d7 d1c2 f8b4
d2d4 d7d5 c2c4 e7e6 b1c3 g8f6 g1f3 d5c4 c1g5 a7a6
d2d4 d7d5 c2c4 c7c6 g1f3 e7e6 e2e3 g8f6 b1d2 f8e7
c2c4 g8f6 d2d4 e7e6 b1c3 f8b4 e2e3 e8g8 g1f3 b4c3
d2d4 g8f6 c2c4 e7e6 b1c3 d7d5 c1g5 d5c4 e2e3 f8e7
c2c4 g8f6 b1c3 e7e5 g1f3 b8c6 g2g3 c6d4 f1g2 d4f3
e2e4 c7c6 d2d4 d7d5 e4e5 c8f5 h2h4 h7h5 c2c4 e7e6
c2c4 e7e5 g2g3 b8c6 f1g2 g7g6 b1c3 f8g7 a1b1 a7a5
e2e4 e7e5 g1f3 b8c6 f1b5 a7a6 b5a4 d7d6 e1g1 g8f6
d2d4 d7d5 c2c4 d5c4 g1f3 g8f6 e2e3 e7e6 f1c4 a7a6
d2d4 d7d5 c2c4 e7e6 g1f3 b8d7 b1c3 g8f6 c4d5 e6d5
d2d4 g8f6 g1f3 e7e6 c2c4 d7d5 b1c3 a7a6 c4d5 e6d5
d2d4 g8f6 c2c4 c7c6 b1c3 d7d5 g1f3 e7e6 e2e3 a7a6
e2e4 c7c5 g1f3 b8c6 c2c3 g8f6 e4e5 f6d5 f1c4 d5b6
d2d4 g8f6 g1f3 e7e6 g2g3 b7b5 c1g5 f8e7 c2c3 a7a5
c2c4 g8f6 d2d4 e7e6 b1c3 d7d5 c4d5 e6d5 c1g5 c7c6
d2d4 d7d5 g1f3 g8f6 c2c4 e7e6 c1g5 d5c4 d1a4 b8d7
e2e4 c7c6 d2d4 d7d5 e4e5 c6c5 d4c5 e7e6 c1e3 g8e7
d2d4 d7d5 c2c4 c7c6 b1c3 g8f6 c4d5 c6d5 c1f4 b8c6
d2d4 d7d5 c2c4 e7e6 b1c3 f8e7 c4d5 e6d5 c1f4 g8f6
e2e4 e7e5 g1f3 b8c6 d2d4 e5d4 f3d4 f8c5 c1e3 d8f6
d2d4 d7d5 c2c4 c7c6 c4d5 c6d5 b1c3 g8f6 g1f3 b8c6
d2d4 e7e6 e2e4 d7d5 b1c3 g8f6 c1g5 f8e7 e4e5 f6d7
d2d4 d7d5 c2c4 c7c6 b1c3 g8f6 e2e3 a7a6 g1f3 c8f5
g1f3 g8f6 c2c4 e7e6 d2d4 d7d5 g2g3 d5c4 f1g2 b8d7
d2d4 d7d5 c2c4 e7e6 b1c3 g8f6 g1f3 f8e7 c1f4 d5c4
e2e4 c7c5 g1f3 e7e6 c2c3 d7d5 e4d5 d8d5 d2d4 g8f6
e2e4 e7e5 g1f3 b8c6 f1c4 f8c5 b1c3 g8f6 e1g1 d7d6
e2e4 e7e5 g1f3 d7d6 d2d4 e5d4 f3d4 g8f6 b1c3 b8c6
e2e4 c7c6 c2c4 d7d5 c4d5 c6d5 e4d5 g8f6 b1c3 f6d5
g1f3 d7d5 d2d4 g8f6 c2c4 e7e6 b1c3 c7c5 c4d5 c5d4
e2e4 e7e5 g1f3 d7d6 d2d4 e5d4 f3d4 g8f6 b1c3 f8e7
e2e4 e7e5 g1f3 g8f6 d2d4 f6e4 f3e5 d7d5 f1d3 f8d6
e2e4 c7c6 g1f3 d7d5 d2d3 d8c7 b1d2 c8g4 f1e2 e7e6
d2d4 g8f6 c2c4 e7e6 g1f3 f8e7 g2g3 d7d5 f1g2 b8d7
d2d4 g8f6 c2c4 e7e6 g1f3 d7d5 e2e3 b7b6 b1d2 b8d7
d2d4 g8f6 c2c4 e7e6 b1c3 f8b4 c1d2 e8g8 g1f3 d7d5
g1f3 c7c5 e2e4 e7e6 d2d4 c5d4 f3d4 b8c6 b1c3 g8f6
e2e4 c7c6 d2d4 d7d5 e4e5 c8f5 c2c4 e7e6 b1c3 g8e7
d2d4 g8f6 c2c4 e7e6 c1g5 h7h6 g5h4 b7b6 b1c3 f8e7
d2d4 d7d5 g1f3 e7e6 c2c4 d5c4 e2e3 a7a6 f1c4 g8f6
e2e4 c7c6 b1c3 d7d5 g1f3 d5e4 c3e4 g8f6 d1e2 f6e4
e2e4 e7e6 g1f3 d7d5 e4d5 e6d5 d2d4 b8c6 f1d3 c8g4
e2e4 c7c5 g1f3 b8c6 b1c3 e7e6 f1b5 c6d4 e1g1 a7a6
e2e4 c7c6 c2c4 d7d5 e4d5 c6d5 d2d4 g8f6 g1f3 c8g4
d2d4 d7d5 c2c4 c7c6 g1f3 e7e6 e2e3 g8f6 b2b3 b8d7
d2d4 d7d5 c2c4 c7c6 b1c3 g8f6 g1f3 e7e6 c1g5 d5c4
g1f3 g8f6 c2c4 c7c5 b1c3 b8c6 d2d4 c5d4 f3d4 e7e6
d2d4 g8f6 c2c4 c7c6 b1c3 d7d5 e2e3 c8f5 g1f3 e7e6
e2e4 e7e5 g1f3 g8f6 f3e5 d7d6 e5f3 f6e4 d2d4 c8f5
g1f3 d7d5 d2d4 g8f6 c2c4 e7e6 b1c3 d5c4 c1g5 c7c5
e2e4 e7e5 g1f3 b8c6 f1b5 f8e7 b1c3 g8f6 e1g1 d7d6
g1f3 g8f6 d2d4 e7e6 c2c4 d7d5 b1c3 a7a6 c4d5 e6d5
e2e4 c7c5 g1f3 b8c6 f1b5 e7e6 c2c3 d7d5 d2d3 g8f6
d2d4 d7d5 c2c4 e7e6 b1c3 g8f6 c1g5 d5c4 e2e3 f8e7
g1f3 e7e6 c2c4 g8f6 d2d4 d7d5 b1c3 d5c4 e2e4 f8b4
d2d4 g8f6 c2c4 e7e6 b1c3 f8b4 e2e3 c7c5 g1f3 b7b6
d2d4 d7d5 c2c4 c7c6 b1c3 e7e6 e2e4 f8b4 c4d5 e6d5
d2d4 g8f6 c2c4 c7c6 b1c3 d7d5 e2e3 c8f5 c4d5 c6d5
d2d4 g8f6 c2c4 e7e6 b1c3 f8b4 e2e3 c7c5 g1e2 d7d6
d2d4 g8f6 g1f3 d7d5 c2c4 e7e6 b1c3 b8d7 c1g5 c7c6
d2d4 g8f6 c2c4 e7e6 g2g3 d7d5 f1g2 a7a6 b1d2 c7c5
d2d4 g8f6 c2c4 e7e6 g1f3 d7d5 h2h3 c7c5 c4d5 e6d5
e2e4 e7e6 d2d4 d7d5 b1d2 c7c5 e4d5 e6d5 f1b5 c8d7
g1f3 e7e6 c2c4 g8f6 g2g3 d7d5 d2d4 f8b4 c1d2 b4e7
e2e4 e7e6 d2d4 d7d5 e4e5 c7c5 c2c3 d8b6 g1f3 c8d7
e2e4 e7e5 g1f3 b8c6 f1b5 a7a6 b5a4 f8e7 c2c4 g8f6
e2e4 c7c5 g1f3 e7e6 d2d4 c5d4 f3d4 b8c6 c1f4 d7d6
d2d4 g8f6 c2c4 e7e6 g1f3 b7b6 g2g3 c8a6 b1d2 d7d5
d2d4 d7d5 c2c4 d5c4 g1f3 e7e6 e2e3 c7c5 f1c4 b8c6
d2d4 g8f6 g1f3 e7e6 c2c4 b7b6 g2g3 c8a6 b2b3 a6b7
d2d4 g8f6 c2c4 e7e6 b1c3 f8b4 c1d2 c7c5 d4d5 e8g8
d2d4 g8f6 c2c4 e7e6 g1f3 d7d5 e2e3 f8e7 b1c3 e8g8
e2e4 e7e5 g1f3 g8f6 f3e5 d7d6 e5f3 f6e4 d2d4 f8e7
e2e4 e7e5 g1f3 b8c6 f1b5 a7a6 b5a4 d7d6 c2c3 f8e7
g1f3 e7e6 d2d4 d7d5 g2g3 c7c5 f1g2 c5d4 e1g1 g8f6
d2d4 g8f6 g1f3 d7d5 c2c4 c7c6 e2e3 c8f5 f1d3 f5d3
g1f3 e7e6 c2c4 d7d5 d2d4 g8f6 g2g3 f8b4 c1d2 b4e7
g1f3 d7d5 d2d4 e7e6 c2c4 g8f6 g2g3 f8b4 c1d2 b4e7
e2e4 e7e5 g1f3 b8c6 f1c4 f8c5 d2d3 g8f6 c2c3 c5b6
g1f3 g8f6 c2c4 e7e6 b1c3 d7d5 d2d4 b8d7 c4d5 e6d5
d2d4 g8f6 c1f4 d7d5 e2e3 c7c5 g1f3 b8c6 f1e2 c5d4
d2d4 d7d5 g1f3 g8f6 c2c4 e7e6 b1c3 c7c6 c1g5 h7h6
d2d4 d7d5 c2c4 e7e6 b1c3 f8e7 g1f3 g8f6 c1f4 e8g8
g1f3 e7e6 c2c4 g8f6 d2d4 d7d5 b1c3 d5c4 e2e3 a7a6
e2e4 c7c6 d2d4 d7d5 b1d2 d5e4 d2e4 b8d7 f1d3 g8f6
e2e4 e7e5 g1f3 b8c6 f1b5 g8f6 d2d3 d7d6 c2c3 c8d7
d2d4 d7d5 c2c4 d5c4 g1f3 e7e6 e2e3 c7c5 f1c4 a7a6
e2e4 c7c5 g1f3 e7e6 c2c3 g8f6 e4e5 f6d5 d2d4 c5d4
d2d4 e7e6 e2e4 d7d5 e4e5 c7c5 c2c3 b8c6 g1f3 d8b6
d2d4 g8f6 c2c4 e7e6 b1c3 d7d5 g1f3 b8d7 c1f4 f8b4
g1f3 g8f6 c2c4 e7e6 d2d4 b7b6 g2g3 c8a6 b2b3 d7d5
d2d4 d7d5 g1f3 g8f6 c2c4 c7c6 c4d5 c6d5 b1c3 c8d7
d2d4 g8f6 g1f3 d7d5 c2c4 e7e6 b1c3 c7c6 c1g5 b8d7
d2d4 g8f6 c2c4 e7e6 g1f3 d7d5 g2g3 b8d7 f1g2 f8b4
g1f3 d7d5 d2d4 e7e6 c2c4 g8f6 b1c3 b8d7 c1f4 d5c4
c2c4 e7e5 g2g3 g8f6 f1g2 f8c5 b1c3 c7c6 g1f3 e5e4
d2d4 d7d5 c2c4 d5c4 g1f3 e7e6 e2e3 c7c5 f1c4 c5d4
e2e4 e7e5 g1f3 b8c6 f1c4 f8c5 b1c3 d7d6 e1g1 h7h6
d2d4 d7d5 c2c4 e7e6 g1f3 g8f6 b1c3 b8d7 c1g5 h7h6
e2e4 e7e5 g1f3 b8c6 b1c3 g8f6 f1b5 c6d4 b5a4 f8c5
g1f3 e7e6 d2d4 d7d5 c2c4 d5c4 e2e3 g8f6 f1c4 c7c5
c2c4 g8f6 d2d4 e7e6 g1f3 d7d5 b1c3 f8e7 c1g5 e8g8
d2d4 g8f6 g1f3 d7d5 c2c4 e7e6 b1c3 b8d7 c1f4 f8b4
e2e4 c7c6 b1c3 d7d5 g1f3 c8g4 d2d4 g8f6 f1d3 e7e6
e2e4 c7c6 c2c4 d7d5 e4d5 g8f6 g1f3 c6d5 d2d4 g7g6
e2e4 c7c6 g1f3 d7d5 b1c3 g8f6 e4e5 f6e4 d2d4 e4c3
e2e4 e7e5 g1f3 b8c6 f1c4 g8f6 f3g5 d7d5 e4d5 c6a5
g1f3 g8f6 c2c4 e7e6 d2d4 d7d5 b1c3 f8e7 d1c2 c7c5
d2d4 g8f6 c2c4 e7e6 g1f3 d7d5 b1c3 f8e7 h2h3 c7c6
e2e4 c7c6 g1f3 d7d5 d2d3 e7e6 e4e5 c6c5 c2c3 g8e7
d2d4 d7d5 g1f3 g8f6 c2c4 e7e6 b1c3 d5c4 e2e4 f8b4
g1f3 d7d5 d2d4 e7e6 c2c4 b8d7 b1c3 g8f6 c1g5 h7h6
d2d4 g8f6 c2c4 e7e6 b1c3 d7d5 g1f3 c7c6 c1g5 b8d7
e2e4 e7e6 d2d4 d7d5 e4e5 c7c5 c2c3 b8c6 g1f3 c5d4
c2c4 g8f6 g1f3 e7e6 d2d4 d7d5 b1c3 f8e7 c1f4 d5c4
d2d4 d7d5 c2c4 d5c4 g1f3 g8f6 e2e3 a7a6 f1c4 e7e6
e2e4 c7c6 d2d4 d7d5 e4e5 c6c5 d4c5 e7e6 f1d3 b8d7
e2e4 c7c5 g1f3 b8c6 f1b5 e7e6 e1g1 c6d4 f3d4 c5d4
g1f3 e7e6 c2c4 g8f6 g2g3 d7d5 d2d4 d5c4 f1g2 b8d7
c2c4 g8f6 d2d4 e7e6 g2g3 d7d5 g1f3 d5c4 f1g2 c7c6
d2d4 d7d5 c2c4 c7c6 g1f3 g8f6 c4d5 c6d5 b1c3 e7e6
e2e4 c7c6 c2c4 d7d5 e4d5 c6d5 c4d5 g8f6 g1f3 f6d5
g1f3 e7e6 d2d4 d7d5 c2c4 g8f6 b1c3 d5c4 e2e3 a7a6
d2d4 d7d5 c2c4 c7c6 c4d5 c6d5 g1f3 g8f6 b1c3 b8c6
g1f3 e7e6 d2d4 d7d5 c2c4 g8f6 b1c3 b8d7 c1g5 c7c6
g1f3 e7e6 d2d4 g8f6 c2c4 b7b6 g2g3 c8a6 b2b3 f8b4
d2d4 g8f6 c2c4 e7e6 g1f3 f8b4 b1d2 e8g8 e2e3 d7d5
d2d4 g8f6 c2c4 c7c6 g1f3 d7d5 b1c3 e7e6 c1g5 b8d7
d2d4 d7d5 c2c4 d5c4 e2e3 g8f6 f1c4 c7c5 g1f3 e7e6
g1f3 g8f6 c2c4 b7b6 d2d4 e7e6 g2g3 c8a6 b2b3 f8b4
d2d4 d7d5 c2c4 e7e6 b1c3 c7c6 g1f3 g8f6 c1g5 b8d7
d2d4 g8f6 c2c4 e7e6 b1c3 f8b4 g1f3 e8g8 c1d2 b7b6
d2d4 d7d5 g1f3 g8f6 c2c4 e7e6 b1c3 f8e7 c1f4 d5c4
e2e4 c7c5 g1f3 b8c6 d2d4 c5d4 f3d4 e7e5 d4b5 d7d6
c2c4 c7c5 g1f3 g8f6 e2e3 b8c6 d2d4 c5d4 f3d4 e7e6
e2e4 e7e5 g1f3 b8c6 f1b5 f8c5 c2c3 g8f6 d2d4 c5b6
d2d4 d7d5 g1f3 e7e6 c2c4 g8f6 b1c3 b8d7 c1g5 f8e7
d2d4 g8f6 c2c4 e7e6 b1c3 f8b4 g1f3 c7c5 g2g3 d7d5
d2d4 g8f6 g1f3 d7d5 c2c4 d5c4 e2e3 c7c5 f1c4 e7e6
e2e4 e7e5 g1f3 b8c6 f1c4 f8c5 d2d3 a7a6 e1g1 g8f6
d2d4 d7d5 g1f3 g8f6 c2c4 e7e6 b1c3 b8d7 c1f4 d5c4
d2d4 d7d5 c2c4 c7c6 c4d5 c6d5 c1f4 g8f6 b1c3 b8c6
e2e4 c7c5 g1f3 b8c6 b1c3 e7e5 f1c4 g7g6 c3d5 f8g7
e2e4 c7c6 d2d4 d7d5 b1d2 d5e4 d2e4 b8d7 g1f3 g8f6
g1f3 e7e6 c2c4 g8f6 d2d4 d7d5 b1c3 b8d7 c4d5 e6d5
d2d4 g8f6 c2c4 e7e6 g1f3 b7b6 g2g3 f8b4 c1d2 b4e7
d2d4 g8f6 c2c4 c7c6 b1c3 d7d5 c4d5 c6d5 c1f4 b8c6
e2e4 e7e5 g1f3 b8c6 f1c4 f8c5 b1c3 g8f6 e1g1 a7a6
d2d4 d7d5 c2c4 e7e6 g1f3 g8f6 b1c3 b8d7 c1g5 c7c6
g1f3 g8f6 d2d4 e7e6 c2c4 d7d5 g2g3 f8b4 c1d2 b4e7
c2c4 g8f6 d2d4 e7e6 b1c3 f8b4 e2e3 e8g8 g1f3 d7d5
d2d4 g8f6 g1f3 e7e6 c2c4 d7d5 b1c3 f8e7 c1f4 c7c5
d2d4 g8f6 c2c4 e7e6 g1f3 d7d5 g2g3 c7c6 b1d2 b7b6
d2d4 d7d5 c2c4 e7e6 g1f3 g8f6 c4d5 e6d5 d1c2 b8c6
d2d4 d7d5 c2c4 d5c4 g1f3 e7e6 e2e3 c7c5 f1c4 g8f6
d2d4 g8f6 g1f3 d7d5 c2c4 c7c6 e2e3 c8f5 b1c3 e7e6
d2d4 d7d5 c2c4 c7c6 b1c3 g8f6 g1f3 e7e6 c1g5 h7h6
c2c4 e7e5 g2g3 b8c6 b1c3 g7g6 f1g2 f8g7 e2e3 d7d6
d2d4 g8f6 c2c4 e7e6 g1f3 d7d5 g2g3 b8d7 f1g2 d5c4
d2d4 g8f6 c2c4 e7e6 g2g3 d7d5 g1f3 d5c4 f1g2 b8d7
d2d4 g8f6 c2c4 e7e6 b1c3 d7d5 g1f3 b8d7 c1g5 f8b4
d2d4 d7d5 c2c4 c7c6 g1f3 e7e6 e2e3 g8f6 b1d2 b8d7
d2d4 g8f6 c2c4 e7e6 b1c3 f8b4 d1b3 c7c5 g1f3 b7b6
g1f3 g8f6 d2d4 d7d5 c2c4 d5c4 e2e3 c7c5 f1c4 e7e6
d2d4 g8f6 c2c4 e7e6 g1f3 f8e7 b1c3 d7d5 g2g3 e8g8
e2e4 c7c6 d2d4 d7d5 e4e5 c8f5 h2h4 h7h6 c2c3 e7e6
d2d4 d7d5 c2c4 e7e6 b1c3 g8f6 c1g5 c7c6 e2e3 b8d7
d2d4 g8f6 c2c4 c7c6 g1f3 d7d5 b1c3 e7e6 c1g5 h7h6
c2c4 g8f6 g1f3 e7e6 d2d4 d7d5 b1c3 b8d7 c4d5 e6d5
d2d4 d7d5 c2c4 e7e6 b1c3 g8f6 g1f3 f8e7 g2g3 e8g8
e2e4 c7c6 g1f3 d7d5 d2d3 e7e6 f1e2 c6c5 e4d5 e6d5
d2d4 g8f6 c2c4 e7e6 b1c3 d7d5 c1g5 c7c6 e2e3 h7h6
c2c4 e7e6 b1c3 d7d5 d2d4 g8f6 g1f3 d5c4 e2e4 f8b4
d2d4 d7d5 c2c4 e7e6 b1c3 g8f6 g1f3 f8b4 c4d5 e6d5
d2d4 g8f6 c2c4 e7e6 g1f3 d7d5 g2g3 d5c4 f1g2 a7a6
d2d4 d7d5 c2c4 d5c4 e2e3 e7e6 g1f3 g8f6 f1c4 a7a6
g1f3 c7c5 c2c4 g8f6 b1c3 e7e6 g2g3 d7d5 c4d5 e6d5
e2e4 c7c5 g1f3 e7e6 b1c3 b8c6 d2d4 c5d4 f3d4 g8f6
e2e4 e7e5 g1f3 b8c6 f1c4 f8c5 c2c3 g8f6 d2d3 c5b6
g1f3 d7d5 d2d4 e7e6 c2c4 g8f6 b1c3 c7c6 c1g5 f8e7
e2e4 e7e5 g1f3 b8c6 b1c3 g8f6 f1b5 c6d4 f3d4 e5d4
e2e4 c7c5 g1f3 b8c6 f1b5 e7e6 c2c3 d7d5 e4d5 d8d5
d2d4 g8f6 c2c4 e7e6 g1f3 d7d5 b1c3 d5c4 e2e4 b7b5
e2e4 c7c6 c2c4 d7d5 e4d5 c6d5 d2d4 g8f6 g1f3 b8c6
d2d4 g8f6 c2c4 e7e6 g2g3 d7d5 g1f3 f8b4 c1d2 b4d6
d2d4 g8f6 c2c4 e7e6 b1c3 f8b4 g1f3 c7c5 e2e3 e8g8
c2c4 e7e5 g2g3 b8c6 b1c3 g7g6 f1g2 d7d6 e2e3 c8e6
g1f3 g8f6 c2c4 b7b6 d2d4 e7e6 g2g3 c8a6 b2b3 a6b7
e2e4 e7e6 d2d4 d7d5 e4e5 c8d7 g1f3 c7c5 c2c3 d8b6
d2d4 g8f6 c2c4 e7e6 g2g3 d7d5 f1g2 b8d7 d1b3 f8e7
e2e4 e7e6 d2d4 d7d5 b1c3 g8f6 e4e5 f6d7 f2f4 f8e7
c2c4 e7e5 g2g3 g8f6 f1g2 f8c5 g1f3 e5e4 f3g5 c5f2
g1f3 g8f6 c2c4 e7e6 b1c3 d7d5 d2d4 a7a6 c4d5 e6d5
d2d4 g8f6 c2c4 e7e6 b1c3 f8b4 g1f3 e8g8 e2e3 b4c3
e2e4 c7c5 g1f3 b8c6 f1b5 e7e6 b5a4 d7d6 d2d4 c5d4
g1f3 g8f6 d2d4 e7e6 g2g3 c7c5 c2c4 c5d4 f3d4 f8b4
d2d4 g8f6 c2c4 c7c6 b1c3 d7d5 g1f3 e7e6 e2e3 b7b6
d2d4 g8f6 c2c4 e7e6 b1c3 d7d5 g1f3 b8d7 d1c2 c7c6
e2e4 c7c5 g1f3 d7d6 b1c3 a7a6 d2d4 c5d4 f3d4 e7e6
d2d4 g8f6 g1f3 e7e6 c2c4 d7d5 b1c3 c7c5 c4d5 f6d5
e2e4 e7e5 g1f3 b8c6 f1b5 g8f6 b1c3 f8d6 e1g1 e8g8
d2d4 d7d5 c2c4 e7e6 b1c3 g8f6 g1f3 f8e7 c1g5 h7h6
d2d4 g8f6 c2c4 e7e6 b1c3 f8b4 d1b3 c7c5 g1f3 b8c6
d2d4 d7d5 c2c4 e7e6 b1c3 g8f6 g1f3 c7c6 c1g5 h7h6
g1f3 g8f6 d2d4 d7d5 c2c4 e7e6 c4d5 e6d5 b1c3 c7c6
d2d4 g8f6 g1f3 e7e6 c2c4 d7d5 b1c3 b8d7 c1g5 h7h6
g1f3 d7d5 d2d4 e7e6 c2c4 d5c4 e2e3 a7a6 f1c4 g8f6
d2d4 d7d5 g1f3 g8f6 c2c4 e7e6 b1c3 f8e7 c1f4 c7c5
d2d4 g8f6 c2c4 e7e6 b1c3 f8b4 g1f3 e8g8 c1d2 d7d5
g1f3 g8f6 c2c4 e7e6 d2d4 b7b6 g2g3 c8a6 b2b3 a6b7
g1f3 d7d5 d2d4 e7e6 g2g3 c7c5 f1g2 c5d4 f3d4 g8f6
c2c4 e7e5 g2g3 b8c6 b1c3 g7g6 d2d3 d7d6 f1g2 f8g7
d2d4 g8f6 c2c4 e7e6 c1f4 d7d5 c4d5 f6d5 f4g3 c7c5
d2d4 d7d5 c2c4 c7c6 g1f3 g8f6 b1c3 e7e6 c1g5 d5c4
d2d4 d7d5 c2c4 e7e6 b1c3 c7c6 e2e4 f8b4 c4d5 e6d5
d2d4 g8f6 g1f3 e7e6 c2c4 d7d5 c4d5 e6d5 b1c3 c7c6
d2d4 g8f6 g1f3 e7e6 c2c4 d7d5 g2g3 d5c4 f1g2 b8d7
e2e4 c7c5 g1f3 b8c6 b1c3 e7e5 f1c4 f8e7 c3d5 g8f6
e2e4 c7c5 g1f3 b8c6 d2d4 c5d4 f3d4 d8c7 c2c4 g8f6
d2d4 g8f6 c2c4 e7e6 b1c3 f8b4 c1d2 b7b6 f2f3 b4c3
d2d4 g8f6 c2c4 e7e6 g1f3 f8e7 c1f4 f6h5 f4d2 d7d5
e2e4 e7e6 g1f3 d7d5 e4d5 e6d5 d2d4 g8f6 f1d3 f8d6
d2d4 d7d5 c2c4 c7c6 g1f3 g8f6 e2e3 e7e6 b2b3 b7b6
d2d4 g8f6 c2c4 e7e6 g2g3 f8b4 c1d2 a7a5 f1g2 e8g8
e2e4 c7c5 g1e2 g8f6 b1c3 a7a6 g2g3 e7e5 f1g2 b7b5
c2c4 e7e5 b1c3 f8b4 c3d5 b4e7 d2d4 e5d4 d1d4 g8f6
c2c4 g8f6 d2d4 e7e6 g1f3 d7d5 b1c3 c7c6 e2e3 b8d7
d2d4 g8f6 c2c4 e7e6 g1f3 d7d5 b1c3 f8e7 g2g3 d5c4
g1f3 d7d5 d2d4 g8f6 c2c4 e7e6 g2g3 d5c4 f1g2 c7c6
d2d4 d7d5 c2c4 e7e6 g1f3 g8f6 b1c3 c7c5 c4d5 e6d5
c2c4 g8f6 g1f3 e7e6 d2d4 d7d5 b1c3 b8d7 c1f4 d5c4
e2e4 c7c5 g1f3 b8c6 f1b5 g7g6 e1g1 f8g7 b5c6 d7c6
d2d4 g8f6 c2c4 c7c6 b1c3 d7d5 e2e3 e7e6 g1f3 b8d7
g1f3 e7e6 d2d4 g8f6 c2c4 d7d5 b1c3 f8e7 g2g3 e8g8
c2c4 e7e5 b1c3 f8b4 c3d5 a7a5 g1f3 b8c6 a2a3 b4e7
d2d4 d7d5 c2c4 e7e6 b1c3 f8b4 c4d5 e6d5 c1f4 g8f6
d2d4 d7d5 c2c4 e7e6 b1c3 g8f6 g1f3 b8d7 d1c2 c7c6
e2e4 e7e5 g1f3 b8c6 f1b5 g8f6 b1c3 c6d4 b5a4 c7c6
e2e4 c7c6 b1c3 d7d5 g1f3 c8g4 h2h3 g4f3 d1f3 g8f6
d2d4 d7d5 c2c4 e7e6 g1f3 g8f6 b1c3 f8e7 g2g3 e8g8
c2c4 e7e5 b1c3 g8f6 g1f3 b8c6 a2a3 d7d5 c4d5 f6d5
e2e4 c7c5 g1f3 e7e6 d2d4 c5d4 f3d4 a7a6 d1f3 g8f6
d2d4 g8f6 c2c4 e7e6 b1c3 f8b4 c1d2 c7c5 d4c5 b4c5
g1f3 e7e6 d2d4 d7d5 c2c4 g8f6 b1c3 d5c4 e2e4 f8b4
g1f3 g8f6 d2d4 e7e6 c2c4 b7b6 g2g3 c8a6 b2b3 f8b4
g1f3 d7d5 d2d4 c7c6 c2c4 g8f6 b1c3 e7e6 c1g5 h7h6
d2d4 g8f6 c2c4 e7e6 c1g5 f8b4 b1d2 c7c5 a2a3 b4d2
d2d4 g8f6 c2c4 c7c6 e2e3 d7d5 b1c3 e7e6 g1f3 a7a6
d2d4 d7d5 c2c4 e7e6 b1c3 g8f6 c4d5 e6d5 g1f3 c7c6
d2d4 d7d5 c2c4 d5c4 g1f3 a7a6 e2e3 g8f6 f1c4 e7e6
c2c4 e7e5 g2g3 g8f6 f1g2 d7d5 c4d5 f6d5 g1f3 b8c6
g1f3 d7d5 d2d4 e7e6 c2c4 g8f6 b1c3 a7a6 c4d5 e6d5
d2d4 d7d5 c2c4 d5c4 e2e3 g8f6 f1c4 a7a6 g1f3 e7e6
e2e4 e7e5 g1f3 b8c6 d2d4 e5d4 f3d4 d8f6 c2c3 f8c5
g1f3 g8f6 c2c4 e7e6 d2d4 b7b6 g2g3 c8a6 b2b3 f8b4
c2c4 e7e5 g2g3 g8f6 f1g2 b8c6 g1f3 f8c5 e1g1 d7d6
c2c4 e7e5 g2g3 g8f6 f1g2 c7c6 d2d4 e5e4 d4d5 f8b4
g1f3 g8f6 c2c4 e7e6 b1c3 f8b4 d1c2 c7c5 a2a3 b4a5
d2d4 d7d5 c2c4 e7e6 b1c3 f8e7 c1f4 g8f6 e2e3 e8g8
d2d4 d7d5 c2c4 e7e6 b1c3 g8f6 g1f3 f8b4 d1a4 b8c6
e2e4 c7c5 g1f3 d7d6 b1c3 e7e5 f1c4 f8e7 a2a3 b8c6
e2e4 c7c5 g1f3 e7e6 b1c3 a7a6 d2d4 c5d4 f3d4 b7b5
c2c4 e7e5 g2g3 g8f6 f1g2 c7c6 g1f3 e5e4 f3d4 d7d5
e2e4 e7e6 d2d4 d7d5 b1c3 g8f6 c1g5 f8e7 e4e5 f6e4
g1f3 e7e6 d2d4 d7d5 c2c4 g8f6 b1c3 f8e7 c1f4 e8g8
e2e4 e7e5 g1f3 b8c6 d2d4 e5d4 f3d4 f8c5 d4b3 c5b4
d2d4 d7d5 g1f3 g8f6 c2c4 e7e6 g2g3 f8b4 c1d2 b4e7
d2d4 g8f6 c2c4 e7e6 b1c3 d7d5 g1f3 f8b4 c1g5 d5c4
d2d4 g8f6 c2c4 c7c6 b1c3 d7d5 g1f3 e7e6 c1g5 f8e7
d2d4 g8f6 c2c4 e7e6 b1c3 d7d5 g1f3 f8e7 d1c2 c7c5
c2c4 g8f6 g2g3 e7e6 f1g2 d7d5 g1f3 d5d4 d2d3 b8c6
d2d4 e7e6 c2c4 g8f6 b1c3 f8b4 c1d2 e8g8 e2e3 b7b6
e2e4 c7c5 g1f3 b8c6 b1c3 g8f6 f1b5 d8c7 d2d3 d7d6
g1f3 d7d5 d2d4 g8f6 c2c4 e7e6 b1c3 b8d7 d1c2 f8e7
e2e4 c7c6 g1f3 d7d5 b1c3 c8g4 d2d4 g8f6 f1d3 e7e6
d2d4 g8f6 g1f3 d7d5 c2c4 e7e6 b1c3 f8e7 d1c2 c7c5
d2d4 d7d5 c2c4 d5c4 g1f3 a7a6 e2e3 b7b5 a2a4 c8b7
g1f3 e7e6 d2d4 d7d5 c2c4 g8f6 c4d5 e6d5 b1c3 c7c6
d2d4 g8f6 c2c4 e7e6 c1f4 d7d5 e2e3 c7c5 d4c5 f8c5
d2d4 g8f6 c2c4 e7e6 b1c3 f8b4 a2a3 b4c3 b2c3 c7c5
d2d4 d7d5 g1f3 e7e6 c2c4 g8f6 g2g3 d5c4 f1g2 c7c6
d2d4 g8f6 c2c4 e7e6 b1c3 f8b4 g1f3 e8g8 c1g5 h7h6
d2d4 d7d5 c2c4 e7e6 b1c3 g8f6 g1f3 c7c5 c4d5 c5d4
e2e4 c7c6 g1f3 d7d5 d2d3 c8g4 h2h3 g4f3 d1f3 g8f6
d2d4 g8f6 c2c4 e7e6 g1f3 f8e7 b1c3 d7d5 c1f4 d5c4
e2e4 e7e5 g1f3 b8c6 d2d4 e5d4 f3d4 f8c5 d4b3 c5e7
d2d4 d7d5 c2c4 c7c6 g1f3 g8f6 b1c3 d5c4 a2a4 e7e6
g1f3 g8f6 c2c4 c7c5 b1c3 b8c6 g2g3 d7d5 c4d5 f6d5
d2d4 g8f6 g1f3 e7e6 g2g3 b7b5 f1g2 c8b7 c1g5 f8e7
d2d4 d7d5 c2c4 e7e6 b1c3 g8f6 g1f3 f8e7 g2g3 b8d7
c2c4 e7e6 d2d4 d7d5 g1f3 g8f6 b1c3 b8d7 c4d5 e6d5
e2e4 e7e5 g1f3 b8c6 f1b5 a7a6 b5a4 d7d6 e1g1 b7b5
g1f3 g8f6 d2d4 d7d5 c2c4 e7e6 b1c3 b8d7 d1c2 c7c5
