server.port=9999
spring.datasource.driver-class-name=oracle.jdbc.driver.OracleDriver
spring.datasource.url=jdbc:oracle:thin:@10.18.203.24:1521/JUPITER.COTRAFA
spring.datasource.username=jobs
spring.datasource.password=ndfhf7544vfvty
logging.level.org.springframework.jdbc.core=TRACE
service.seguridad.host=http://vasarely.cotrafa:5001
service.seguridad.url=/rest/v1.0/seguridad-nm
service.utilidades.host=http://vasarely.cotrafa:5001
service.utilidades.url=/rest/v1.0/seguridad-nm
jwt.filter.enabled=true
jwt.filter.validationService=/validar-token
cors.filter.enabled=true
auditoria.filter.enabled=true
auditoria.filter.validationService=/obtener-sesion-auditoria
filterExclusionsUrls=.*/v2/api-docs.*|.*/configuration/.*|.*/swagger.*|.*/docs/.*|.*/webjars/.*|.*/actuator/.*
httpTimeout=3000
spring.jpa.show-sql=true
spring.redis.host=vasarely.cotrafa
spring.redis.port=6379
spring.redis.ssl=false
spring.redis.timeout=5000
spring.redis.jedis.pool.max-idle=1
spring.redis.jedis.pool.min-idle=1
spring.redis.jedis.pool.max-active=3
spring.redis.jedis.pool.max-wait=5000ms
logging.level.com.prueba.x=DEBUG
logging.level.org.hibernate.SQL=DEBUG
logging.level.org.hibernate.type.descriptor.sql.BasicBinder=TRACE
