public class A{
	public int i;
	/*Comentario*/
	public int test(int a){//Comentario simple
		int b=10;
		String c="/*\"//";
		String d='/*\'//';
		if(a>b){
			return 2*b+a;
		}else{
			return 7*b+a;
		}
	}
}
