|   .   .   .   |   .   .   .   |   .   .   .   |   .   .   .   |   .   .   .   |   .   .   .   |   .   .   .   |   .   .   .   |   .   .   .   |   .   .   .   |   .   .   .   
|   .   .   2   |   .   .   .   |   .   .   2 0 |   .   .   .   |   .   .   2   |   .   .   .   |   .   .   2 0 |   .   .   .   |   .   .   2   |   .   2   .   |   .   .   2 0 
|   .   .   .   |   .   .   .   |   .   .   .   |   .   .   .   |   .   .   .   |   .   .   .   |   .   .   .   |   .   .   .   |   .   .   .   |   .   .   .   |   .   .   .   
0 0 0 0 0   .   |   .   .   .   0 0 0 0 0   .   |   .   .   .   0 0 0 0 0   .   |   .   .   .   0 0 0 0 0   .   |   .   .   .   0 0 0 0 0   .   |   .   .   .   0 0 0 0 2   .   

|   .   .   .   |   .   .   .   |   .   .   .   |   .   .   .   |   .   .   .   |   .   .   .   |   .   .   .   |   .   .   .   |   .   .   .   |   .   .   .   |   .   .   .   
|   .   0   .   |   .   .   2   |   .   2   .   |   .   .   2 0 |   .   0   .   |   .   .   .   |   .   .   .   |   .   .   .   |   .   .   .   |   .   .   .   |   .   .   .   
|   .   .   .   |   .   .   .   |   .   .   .   |   .   .   .   |   .   .   .   |   0   .   .   |   .   .   .   |   .   .   .   |   .   .   .   |   .   .   .   |   .   .   .   
|   .   .   .   0 0 0 0 0   .   |   .   .   .   0 0 0 0 2   .   |   .   .   .   |   .   3   2   0   .   .   .   |   .   .   .   |   .   .   .   |   .   .   .   |   .   .   .   

|   .   .   .   |   .   .   .   |   .   G H G   |   .   .   .   |   .   .   .   |   .   .   .   |   .   .   .   |   .   .   .   |   .   .   .   |   .   .   .   |   .   .   .   
|   .   .   .   |   .   .   .   |   .   .   .   |   .   .   .   |   .   .   .   |   .   .   .   |   .   .   .   |   .   .   .   |   .   .   .   |   .   .   .   |   .   .   .   
|   .   .   .   |   .   .   .   |   .   .   .   |   .   .   .   |   .   2 3 2 0 |   .   .   .   |   .   2 3 2 0 |   .   .   .   |   .   2 3 2 0 |   .   .   .   |   .   2 3 2 0 
|   .   .   .   |   .   .   .   |   .   .   .   0 0 0 0 0 0 0 0 0 0 0 0 .   .   0 0 0 0 0 0 0 0 0 0 0 0 .   .   0 0 0 0 0 0 0 0 0 0 0 0 .   .   0 0 0 0 0 0 0 0 0 0 0 0 .   .   

|   .   .   .   |   .   .   .   |   .   .   .   |   .   .   .   |   .   .   .   |   .   .   .   |   .   .   .   |   .   .   .   |   .   .   .   |   .   .   .   |   .   .   .   
|   .   .   .   |   .   .   .   |   .   .   .   |   .   .   .   |   .   .   .   |   .   .   .   |   .   .   .   |   .   .   .   |   .   .   .   |   .   .   .   |   .   .   .   
|   .   .   .   |   .   .   .   |   .   .   .   |   .   .   .   |   .   .   .   |   .   .   .   |   .   .   .   |   .   .   .   |   .   .   .   |   .   2 3 2 0 |   .   .   .   
0 0 3   0 0 3   0 0 2 2 2 2 2 2 0 0 3   0 0 3   0 0 2 2 2 2 2 2 0 0 3   0 0 3   0 0 2 2 2 2 2 2 0 0 3   0 0 3   0 0 2 2 2 2 2 2 0 0 0 0 0 0 0 0 0 0 0 0 .   .   0 0 0 0 0 0 0 0 
*                                                                               sleɪvz ˈhibruz bɔrn tu sɜrv             tu ðə ˈfɛroʊ            hid     tu hɪz ˈɛvəri wɜrd
|   .   .   .   |   .   .   .   |   .   .   .   |   .   .   .   |   .   .   .   |   .   .   .   |   .   .   .   |   .   .   .   |   .   .   .   |   .   .   .   |   .   .   .   
|   .   .   .   |   2   .   2   | 2 0   . 2 0 2 0 2 0   .   .   |   .   .   .   |   .   .   .   |   .   .   .   |   .   .   .   |   .   .   .   |   .   .   .   |   .   .   .   
|   .   2 3 2 0 |   .   .   .   |   .   .   .   |   .   4   0   2   2   4   .   |   .   .   .   |   .   2 3 2 0 |   .   .   .   |   .   2 3 2 0 |   .   .   .   |   .   2 3 2 0 
0 0 0 0 .   .   0   .   0 0 . 0 |   .   .   .   |   .   .   .   |   .   .   2   0 0 0 0 0 0 0 0 0 0 0 0 .   .   0 0 0 0 0 0 0 0 0 0 0 0 .   .   0 0 0 0 0 0 0 0 0 0 0 0 .   .   
*       lɪv ɪn fɪr              feɪθ    ʌv ði ənˈnoʊn wʌn               ðə dɪˈlɪvərər           weɪt   ˈsʌmθɪŋ mʌst bi dʌn            fɔr ˈhʌndrəd jɪrz
|   .   .   .   |   .   .   .   |   .   .   .   |   .   .   .   |   .   .   .   |   .   .   .   |   .   .   .   |   .   .   .   |   .   .   .   |   .   .   .   |   .   .   .   
|   .   .   .   |   .   .   .   |   .   .   .   |   .   .   .   |   .   .   .   |   .   .   .   |   .   .   .   |   .   .   .   |   .   .   .   |   .   .   .   |   .   .   .   
|   .   .   .   |   .   2 3 2 0 |   .   .   .   |   .   2 3 2 0 |   .   .   .   |   .   2 3 2 0 |   .   .   .   |   .   2 3 2 0 |   .   .   .   |   .   2 3 2 0 |   .   .   .   
0 0 0 0 0 0 0 0 0 0 0 0 .   .   0 0 0 0 0 0 0 0 0 0 0 0 .   .   0 0 0 0 0 0 0 0 0 0 0 0 .   .   0 0 0 0 0 0 0 0 0 0 0 0 .   .   0 0 0 0 0 0 0 0 0 0 0 0 .   .   0 0 3   0 0 3   
*                                                                                                                   soʊ lɛt ɪt bi ˈrɪtən                  soʊ lɛt ɪt bi dʌn
|   .   .   .   |   .   .   .   |   .   .   .   |   .   .   .   |   .   .   .   |   .   .   .   |   .   .   .   |   .   .   .   |   .   .   .   |   .   .   .   |   .   .   .   
|   .   .   .   |   .   .   .   |   .   .   .   |   .   .   .   |   .   .   .   |   .   .   .   |   .   .   .   |   .   .   .   |   .   .   . 0 |   0   0 0 0 0 0 0 0 0 3   3   
|   .   .   .   |   .   .   .   |   .   .   .   |   .   .   .   |   .   .   .   |   .   .   .   |   .   .   .   |   .   .   .   |   .   . 3 .   |   .   .   .   |   .   .   .   
0 0 2 2 2 2 2 2 0 0 3   0 0 3   0 0 2 2 2 2 2 2 0 0 3   0 0 3   0 0 2 2 2 2 2 2 0 0 3   0 0 3   0 0 2 2 2 2 2 2 0   0   0 0 0 0 | 0 0 0 0   .   |   .   .   .   |   .   .   .   
*   aɪm sɛnt hir baɪ ðə ˈʧoʊzən wʌn                                 soʊ lɛt ɪt bi ˈrɪtən                  soʊ lɛt ɪt bi dʌn         tu kɪl ðə fɜrst bɔrn ˈfɛroʊ sʌn
|   .   .   .   |   .   .   .   |   .   .   .   |   .   .   .   |   .   .   .   |   .   .   .   |   .   .   .   |   .   .   .   |   .   .   .   |   .   .   .   |   .   .   .   
2   2   2 2 2 2 | 2 2 2 2   . 0 |   0   0 0 0 0 |   .   .   .   |   .   .   .   |   .   .   . 0 |   0   0 0 0 0 0 0 0 0 3   3   2   2   2 2 2 2 | 2 2 2 2   . 0 |   0 0 0 0 0 0 
|   .   .   .   |   .   . 3 .   |   .   .   .   |   .   .   .   |   .   .   .   |   .   . 3 .   |   .   .   .   |   .   .   .   |   .   .   .   |   .   . 3 .   |   .   .   .   
|   .   .   .   |   .   .   .   |   .   .   .   1 1 1 1 3 3 3   0   0   0 0 0 0 | 0 0 0 0   .   |   .   .   .   |   .   .   .   |   .   .   .   |   .   .   .   |   .   .   .   
*   aɪm ˈkripɪŋ dɛθ--------------                                                                                                               naʊ     lɛt maɪ ˈpipəl goʊ
|   .   .   .   |   .   .   .   |   .   .   .   |   .   .   .   |   .   .   .   |   .   .   .   |   .   .   .   |   .   .   .   |   .   .   .   |   .   .   .   |   .   .   .   
0   .   .   .   |   .   .   .   |   .   .   .   |   .   .   .   |   .   .   .   |   2   .   2   | 2 0   . 2 0 2 0 2 0   .   .   |   .   .   .   |   .   .   .   |   .   .   .   
|   2   4   .   |   .   .   .   |   .   2 3 2 0 |   .   .   .   |   .   2 3 2 0 |   .   .   .   |   .   .   .   |   .   4   0   2   2   4   .   |   .   .   .   |   .   2 3 2 0 
|   .   .   2   0 0 0 0 0 0 0 0 0 0 0 0 .   .   0 0 0 0 0 0 0 0 0 0 0 0 .   .   0   .   0 0 . 0 |   .   .   .   |   .   .   .   |   .   .   2   0 0 0 0 0 0 0 0 0 0 0 0 .   .   
*       lænd ʌv ˈgoʊʃɪn         goʊ     aɪ wɪl bi wɪð ði                bʊʃ ʌv ˈfaɪər           blʌd   ˈrʌnɪŋ rɛd ænd strɔŋ             daʊn ðə naɪl            pleɪg  ˈdɑrknəs θri
|   .   .   .   |   .   .   .   |   .   .   .   |   .   .   .   |   .   .   .   |   .   .   .   |   .   .   .   |   .   .   .   |   .   .   .   |   .   .   .   |   .   .   .   
|   .   .   .   |   .   .   .   |   .   .   .   |   .   .   .   |   .   .   .   |   .   .   .   |   .   .   .   |   .   .   .   |   .   .   .   |   .   .   .   |   .   .   .   
|   .   .   .   |   .   2 3 2 0 |   .   .   .   |   .   2 3 2 0 |   .   .   .   |   .   2 3 2 0 |   .   .   .   |   .   2 3 2 0 |   .   .   .   |   .   2 3 2 0 |   .   .   .   
0 0 0 0 0 0 0 0 0 0 0 0 .   .   0 0 0 0 0 0 0 0 0 0 0 0 .   .   0 0 0 0 0 0 0 0 0 0 0 0 .   .   0 0 0 0 0 0 0 0 0 0 0 0 .   .   0 0 0 0 0 0 0 0 0 0 0 0 .   .   0 0 0 0 0 0 0 0 
* deɪz lɔŋ              heɪl tu ˈfaɪər
|   .   .   .   |   .   .   .   |   .   .   .   |   .   .   .   |   .   .   .   |   .   .   .   |   .   .   .   |   .   .   .   |   .   .   .   |   .   .   .   |   .   .   .   
|   .   .   .   |   .   .   .   |   .   .   .   |   .   .   .   |   .   .   .   |   .   .   .   |   .   .   .   |   .   .   .   |   .   .   .   |   .   .   .   |   .   .   .   
|   .   2 3 2 0 |   .   .   .   |   .   2 3 2 0 |   .   .   .   |   .   .   .   |   .   .   .   |   .   .   .   |   .   .   .   |   .   .   .   |   .   .   .   |   .   .   .   
0 0 0 0 .   .   0 0 0 0 0 0 0 0 0 0 0 0 .   .   0 0 3   0 0 3   0 0 2 2 2 2 2 2 0 0 3   0 0 3   0 0 2 2 2 2 2 2 0 0 3   0 0 3   0 0 2 2 2 2 2 2 0 0 3   0 0 3   0 0 2 2 2 2 2 2 
*   soʊ lɛt ɪt bi ˈrɪtən                  soʊ lɛt ɪt bi dʌn         aɪm sɛnt hir baɪ ðə ˈʧoʊzən wʌn                                 soʊ lɛt ɪt bi ˈrɪtən                  soʊ lɛt ɪt bi dʌn
|   .   .   .   |   .   .   .   |   .   .   .   |   .   .   .   |   .   .   .   |   .   .   .   |   .   .   .   |   .   .   .   |   .   .   .   |   .   .   .   |   .   .   .   
|   .   .   .   |   .   .   . 0 |   0   0 0 0 0 0 0 0 0 3   3   2   2   2 2 2 2 | 2 2 2 2   . 0 |   0   0 0 0 0 |   .   .   .   |   .   .   .   |   .   .   . 0 |   0   0 0 0 0 
|   .   .   .   |   .   . 3 .   |   .   .   .   |   .   .   .   |   .   .   .   |   .   . 3 .   |   .   .   .   |   .   .   .   |   .   .   .   |   .   . 3 .   |   .   .   .   
0   0   0 0 0 0 | 0 0 0 0   .   |   .   .   .   |   .   .   .   |   .   .   .   |   .   .   .   |   .   .   .   1 1 1 1 3 3 3   0   0   0 0 0 0 | 0 0 0 0   .   |   .   .   .   
*                   tu kɪl ðə fɜrst bɔrn ˈfɛroʊ sʌn                 aɪm ˈkripɪŋ dɛθ--------------
|   .   .   .   |   .   .   .   |   .   .   .   |   .   .   .   |   .   .   .   |   .   .   .   |   .   .   .   |   .   .   .   |   .   .   .   |   .   .   .   |   .   .   .   
0 0 0 0 3   3   2   2   2 2 2 2 | 2 2 2 2   . 0 |   0 0 0 0 0 0 0   .   .   .   |   .   .   .   |   .   .   .   |   .   .   .   |   .   .   .   |   2   .   2   | 2 0   . 2 0 2 
|   .   .   .   |   .   .   .   |   .   . 3 .   |   .   .   .   |   2   4   .   |   .   .   .   |   .   2 3 2 0 |   .   .   .   |   .   2 3 2 0 |   .   .   .   |   .   .   .   
|   .   .   .   |   .   .   .   |   .   .   .   |   .   .   .   |   .   .   2   0 0 0 0 0 0 0 0 0 0 0 0 .   .   0 0 0 0 0 0 0 0 0 0 0 0 .   .   0   .   0 0 . 0 |   .   .   .   

|   .   .   .   |   .   .   .   |   .   .   .   |   .   .   .   |   .   .   .   |   .   .   .   |   .   .   .   |   .   .   .   |   .   .   .   |   .   .   .   |   .   .   .   
0 2 0   .   .   |   .   .   .   |   .   .   .   |   .   .   .   |   .   .   .   |   .   .   .   |   .   .   .   |   .   .   .   |   .   .   .   |   .   .   .   |   .   .   .   
|   .   4   0   2   2   4   .   |   .   .   .   |   .   2 3 2 0 0 0 0 0 0 0 0 0 0 0 0 0 0   3   |   .   .   .   |   .   2 3 2 0 0 0 0 0 0 0 0 0 0 0 0 0 0   3   |   .   .   .   
|   .   .   .   |   .   .   2   0 0 0 0 0 0 0 0 0 0 0 0 .   .   |   .   .   .   |   .   .   .   0 0 0 0 0 0 0 0 0 0 0 0 .   .   |   .   .   .   |   .   .   .   0 0 0 0 0 0 0 0 

|   .   .   .   |   .   .   .   |   .   .   .   |   .   .   .   |   .   .   .   |   .   .   .   |   .   .   .   |   .   .   .   |   .   .   .   |   .   .   .   |   .   .   .   
|   .   .   .   |   .   .   .   |   .   .   .   |   .   .   .   |   .   .   .   |   .   .   .   |   .   .   .   |   .   .   .   |   .   .   .   |   .   .   .   |   .   .   .   
|   .   2 3 2 0 0 0 0 0 0 0 0 0 0 0 0 0 0   3   |   .   .   .   |   .   2 3 2 0 0 0 0 0 0 0 0 0 0 0 0 0 0   3   |   .   .   .   |   .   .   .   |   .   .   .   |   .   .   .   
0 0 0 0 .   .   |   .   .   .   |   .   .   .   0 0 0 0 0 0 0 0 0 0 0 0 .   .   |   .   .   .   |   .   .   .   0 0 3   0 0 3   0 0 2 2 2 2 2 2 0 0 3   0 0 3   0 0 2 2 2 2 2 2 

|   .   .   .   |   .   .   .   |   .   .   .   |   .   .   .   |   .   .   .   |   .   .   .   |   .   .   .   |   .   .   .   |   .   .   .   |   .   .   .   |   .   .   .   
|   .   .   .   |   .   .   .   |   .   .   .   |   .   .   .   |   .   .   .   |   .   .   . 0 |   0   0 0 0 0 0 0 0 0 3   3   2   2   2 2 2 2 | 2 2 2 2   . 0 |   0   0 0 0 0 
|   .   .   .   |   .   .   .   |   .   .   .   |   .   .   .   |   .   .   .   |   .   . 3 .   |   .   .   .   |   .   .   .   |   .   .   .   |   .   . 3 .   |   .   .   .   
0 0 3   0 0 3   0 0 2 2 2 2 2 2 0 0 3   0 0 3   0 0 2 2 2 2 2 2 0   0   0 0 0 0 | 0 0 0 0   .   |   .   .   .   |   .   .   .   |   .   .   .   |   .   .   .   |   .   .   .   

|   .   .   .   |   .   .   .   |   .   .   .   |   .   .   .   |   .   .   .   |   .   .   .   |   .   .   .   |   .   .   .   |   .   .   .   |   .   .   .   |   .   .   .   
|   .   .   .   |   .   .   .   |   .   .   . 0 |   0   0 0 0 0 0 0 0 0 3   3   2   2   2 2 2 2 | 2 2 2 2   . 0 |   0 0 0 0 0 0 0   .   .   .   |   .   .   .   |   .   2 2 2 2 
|   .   .   .   |   .   .   .   |   .   . 3 .   |   .   .   .   |   .   .   .   |   .   .   .   |   .   . 3 .   |   .   .   .   |   2   4   .   |   .   .   .   |   .   .   .   
1 1 1 1 3 3 3   0   0   0 0 0 0 | 0 0 0 0   .   |   .   .   .   |   .   .   .   |   .   .   .   |   .   .   .   |   .   .   .   |   .   .   2   0   .   .   .   0   .   .   .   

|   .   .   .   |   .   .   .   |   .   .   .   |   .   .   .   |   .   .   .   |   .   .   .   |   .   .   .   |   .   .   .   |   .   .   .   |   .   .   .   |   .   .   .   
3 3 3   0   .   2   .   .   .   |   .   .   .   |   .   2 2 2 2 3 3 3   0   .   2   .   .   .   |   .   .   .   |   .   2 2 2 2 3 3 3   0   .   2   .   .   .   |   .   .   .   
|   .   .   .   |   .   .   .   |   .   .   .   |   .   .   .   |   .   .   .   |   .   .   .   |   .   .   .   |   .   .   .   |   .   .   .   |   .   .   .   |   .   .   .   
|   .   .   .   |   .   0 0 0 0 3   3 3 1   1   0   .   .   .   |   .   .   .   |   .   0 0 0 0 3   3 3 1   1   0   .   .   .   |   .   .   .   |   .   0 0 0 0 3   3 3 1   1   
*                                                               daɪ-----        baɪ     maɪ     hænd----      aɪ krip əˈkrɔs ðə lænd           ˈkɪlɪŋ fɜrst bɔrn mæn
|   .   .   .   |   .   .   .   |   .   .   .   |   .   .   .   |   .   .   .   |   .   .   .   |   .   .   .   |   .   .   .   |   .   .   .   |   .   .   .   |   .   .   .   
|   .   2 2 2 2 3 3 3   0   .   2   .   .   .   |   .   .   .   |   .   2 2 2 2 3 3 3   0   .   2   .   .   .   |   .   .   .   |   .   2 2 2 2 3 3 3   0   .   2   .   .   .   
|   .   .   .   |   .   .   .   |   .   .   .   |   .   .   .   |   .   .   .   |   .   .   .   |   .   .   .   |   .   .   .   |   .   .   .   |   .   .   .   |   .   .   .   
0   .   .   .   |   .   .   .   |   .   0 0 0 0 3   3 3 1   1   0   .   .   .   |   .   .   .   |   .   0 0 0 0 3   3 3 1   1   0   .   .   .   |   .   .   .   |   .   0 0 0 0 
*               daɪ-----        baɪ     maɪ     hænd----      aɪ krip əˈkrɔs ðə lænd           ˈkɪlɪŋ fɜrst bɔrn mæn
|   .   .   .   |   .   .   .   |   .   .   .   |   .   .   .   |   .   .   .   |   .   .   .   |   .   .   .   |   .   .   .   |   .   .   .   |   .   .   .   |   .   .   .   
|   .   .   .   |   .   2 2 2 2 3 3 3   0   .   2   .   .   .   |   .   .   .   |   .   2 2 2 2 3 3 3   0   .   2   .   .   .   |   .   .   .   |   .   .   .   |   .   .   .   
|   .   .   .   |   .   .   .   |   .   .   .   |   .   .   .   |   .   .   .   |   .   .   .   |   .   .   .   |   .   .   .   |   .   .   .   |   .   .   .   |   .   2 3 2 0 
3   3 3 1   1   0   .   .   .   |   .   .   .   |   .   0 0 0 0 3   3 3 1   1   0   .   .   .   |   .   .   .   |   .   0 0 0 0 3   3 3 1   1   0 0 0 0 0 0 0 0 0 0 0 0 .   .   
*                                                               aɪ      rul ðə ˈmɪdˌnaɪt ɛr             ðə dɪˈstrɔɪər           bɔrn    aɪ ʃæl sun bi ðɛr              ˈdɛdli mæs
|   .   .   .   |   .   .   .   |   .   .   .   |   .   .   .   |   .   .   .   |   .   .   .   |   .   .   .   |   .   .   .   |   .   .   .   |   .   .   .   |   .   .   .   
|   .   .   .   |   .   .   .   |   .   .   .   |   .   0   .   |   .   .   .   |   .   .   .   |   .   .   .   |   .   .   .   |   .   .   .   |   .   .   .   |   .   .   .   
|   .   .   .   |   .   2 3 2 0 |   .   .   .   |   .   .   .   |   .   .   .   |   .   2 3 2 0 |   .   .   .   |   .   2 3 2 0 |   .   .   .   |   .   2 3 2 0 |   .   .   .   
0 0 0 0 0 0 0 0 0 0 0 0 .   .   0   .   .   .   0  1.3  .   .   0 0 0 0 0 0 0 0 0 0 0 0 .   .   0 0 0 0 0 0 0 0 0 0 0 0 .   .   0 0 0 0 0 0 0 0 0 0 0 0 .   .   0 0 0 0 0 0 0 0 
*               aɪ      krip ðə stɛps ænd flɔr         ˈfaɪnəl ˈdɑrknəs         blʌd    læmz blʌd ˈpeɪntəd dɔr          aɪ ʃæl pæs
|   .   .   .   |   .   .   .   |   .   .   .   |   .   .   .   |   .   .   .   |   .   .   .   |   .   .   .   |   .   .   .   |   .   .   .   |   .   .   .   |   .   .   .   
|   .   .   .   |   .   .   .   |   .   .   .   |   .   .   .   |   .   .   .   |   .   .   .   |   .   .   .   |   .   .   .   |   .   .   .   |   .   .   .   |   .   .   .   
|   .   2 3 2 0 |   .   .   .   |   .   2 3 2 0 |   .   .   .   |   .   2 3 2 0 |   .   .   .   |   .   2 3 2 0 |   .   .   .   |   .   2 3 2 0 |   .   .   .   |   .   .   .   
0 0 0 0 .   .   0 0 0 0 0 0 0 0 0 0 0 0 .   .   0 0 0 0 0 0 0 0 0 0 0 0 .   .   0 0 0 0 0 0 0 0 0 0 0 0 .   .   0 0 0 0 0 0 0 0 0 0 0 0 .   .   0 0 3   0 0 3   0 0 2 2 2 2 2 2 
*                                                                                                   soʊ lɛt ɪt bi ˈrɪtən                  soʊ lɛt ɪt bi dʌn         aɪm sɛnt hir baɪ
|   .   .   .   |   .   .   .   |   .   .   .   |   .   .   .   |   .   .   .   |   .   .   .   |   .   .   .   |   .   .   .   |   .   .   .   |   .   .   .   |   .   .   .   
|   .   .   .   |   .   .   .   |   .   .   .   |   .   .   .   |   .   .   .   |   .   .   .   |   .   .   .   |   .   .   . 0 |   0   0 0 0 0 0 0 0 0 3   3   2   2   2 2 2 2 
|   .   .   .   |   .   .   .   |   .   .   .   |   .   .   .   |   .   .   .   |   .   .   .   |   .   .   .   |   .   . 3 .   |   .   .   .   |   .   .   .   |   .   .   .   
0 0 3   0 0 3   0 0 2 2 2 2 2 2 0 0 3   0 0 3   0 0 2 2 2 2 2 2 0 0 3   0 0 3   0 0 2 2 2 2 2 2 0   0   0 0 0 0 | 0 0 0 0   .   |   .   .   .   |   .   .   .   |   .   .   .   
*   ðə ˈʧoʊzən wʌn                                  soʊ lɛt ɪt bi ˈrɪtən                  soʊ lɛt ɪt bi dʌn         tu kɪl ðə fɜrst bɔrn ˈfɛroʊ sʌn                 aɪm ˈkripɪŋ
|   .   .   .   |   .   .   .   |   .   .   .   |   .   .   .   |   .   .   .   |   .   .   .   |   .   .   .   |   .   .   .   |   .   .   .   |   .   .   .   |   .   .   .   
| 2 2 2 2   . 0 |   0   0 0 0 0 |   .   .   .   |   .   .   .   |   .   .   . 0 |   0   0 0 0 0 0 0 0 0 3   3   2   2   2 2 2 2 | 2 2 2 2   . 0 |   0 0 0 0 0 0 0   .   .   .   
|   .   . 3 .   |   .   .   .   |   .   .   .   |   .   .   .   |   .   . 3 .   |   .   .   .   |   .   .   .   |   .   .   .   |   .   . 3 .   |   .   .   .   |   2   4   .   
|   .   .   .   |   .   .   .   1 1 1 1 3 3 3   0   0   0 0 0 0 | 0 0 0 0   .   |   .   .   .   |   .   .   .   |   .   .   .   |   .   .   .   |   .   .   .   |   .   .   2   
dɛθ--------------
|   .   .   .   |   .   .   .   |   .   .   .   |   .   .   .   |   .   .   .   |   .   .   .   |   .   .   .   |   .   .   .   |   .   .   .   |   .   .   .   |   .   .   .   
|   .   .   .   |   .   .   .   |   .   .   .   |   .   .   0 0 |   .   .   .   |   .   .   .   |   .   .   .   |   .   .   0 0 |   .   .   .   |   .   .   .   |   .   .   .   
|   .   .   .   |   .   .   .   |   .   .   .   |   3 3 3 3 .   |   .   .   .   |   .   .   .   |   .   .   .   |   3 3 3 3 .   |   .   .   .   |   .   .   .   |   .   .   .   
0 0 0 0 0 0 0   |   0 0 0 0 3 2 0 0 0 0 0 0 0   |   .   .   .   0 0 0 0 0 0 0   |   0 0 0 0 3 2 0 0 0 0 0 0 0   |   .   .   .   0 0 0 0 0 0 0   |   0 0 0 0 3 2 0 0 0 0 0 0 0   

|   .   .   .   |   .   .   .   |   .   .   .   |   .   .   .   |   .   .   .   |   .   .   .   |   .   .   .   |   .   .   .   |   .   .   .   |   .   .   .   |   .   .   .   
|   .   .   0 0 |   .   .   .   |   .   .   .   |   .   .   .   |   .   .   0 0 |   .   .   .   |   .   .   .   |   .   .   .   |   .   .   0 0 |   .   .   .   |   .   .   .   
|   3 3 3 3 .   |   .   .   .   |   .   .   .   |   .   .   .   |   3 3 3 3 .   |   .   .   .   |   .   .   .   |   .   .   .   |   3 3 3 3 .   |   .   .   .   |   .   .   .   
|   .   .   .   0 0 0 0 0 0 0   |   0 0 0 0 3 2 0 0 0 0 0 0 0   |   .   .   .   0 0 0 0 0 0 0   |   0 0 0 0 3 2 0 0 0 0 0 0 0   |   .   .   .   0 0 0 0 0 0 0   |   0 0 0 0 3 2 

|   .   .   .   |   .   .   .   |   .   .   .   |   .   .   .   |   .   .   .   |   .   .   .   |   .   .   .   |   .   .   .   |   .   .   .   |   .   .   .   |   .   .   .   
|   .   .   .   |   .   .   0 0 |   2   0   .   |   .   .   .   |   .   .   .   |   .   .   .   |   2   0   .   |   .   .   .   |   .   .   .   |   .   .   .   |   2   0   .   
|   .   .   .   |   3 3 3 3 .   |   .   .   3 2 |   .   .   .   |   3   2   0 3 |   .   .   .   |   .   .   3 2 |   .   .   .   |   3   2   0 3 |   .   .   .   |   .   .   3 2 
0 0 0 0 0 0 0   |   .   .   .   0 0 .   .   .   |   .   .   .   |   .   .   .   |   .   .   .   |   .   .   .   |   .   .   .   |   .   .   .   |   .   .   .   |   .   .   .   

|   .   .   .   |   .   .   .   |   .   .   .   |   .   .   .   |   .   .   .   |   .   .   .   |   .   .   .   |   .   .   .   |   .   .   .   |   .   .   .   |   .   .   .   
|   .   .   .   |   .   .   .   |   .   .   .   |   2   0   .   |   .   .   .   |   .   .   .   |   .   .   .   |   .   .   2   |   .   .   .   |   .   .   2 0 |   .   .   .   
|   .   .   .   |   3   2   0 3 |   .   .   .   |   .   .   3 2 |   .   .   .   |   3   2   0 3 |   .   .   .   |   .   .   .   |   .   .   .   |   .   .   .   |   .   .   .   
|   .   .   .   |   .   .   .   |   .   .   .   |   .   .   .   |   .   .   .   |   .   .   .   |   .   .   .   0 0 0 0 0   .   |   .   .   .   0 0 0 0 0   .   |   .   .   .   

|   .   .   .   |   .   .   .   |   .   .   .   |   .   .   .   |   .   .   .   |   .   .   .   |   .   .   .   |   .   .   .   |   .   .   .   |   .   .   .   |   .   .   .   
|   .   .   2   |   .   .   .   |   .   .   2 0 |   .   .   .   |   .   .   2   |   .   2   .   |   .   .   2 0 |   .   0   .   |   .   .   2   |   .   2   .   |   .   .   2 0 
|   .   .   .   |   .   .   .   |   .   .   .   |   .   .   .   |   .   .   .   |   .   .   .   |   .   .   .   |   .   .   .   |   .   .   .   |   .   .   .   |   .   .   .   
0 0 0 0 0   .   |   .   .   .   0 0 0 0 0   .   |   .   .   .   0 0 0 0 0   .   |   .   .   .   0 0 0 0 2   .   |   .   .   .   0 0 0 0 0   .   |   .   .   .   0 0 0 0 2   .   

|   .   .   .   |   .   .   .   |   .   .   .   |   .   .   .   |   .   .   .   |   .   .   .   |   .   .   .   |   .   .   .   |   .   .   .   |   .   .   .   |   .   .   .   
|   .   0   .   |   .   .   .   |   .   .   .   |   .   .   .   |   .   .   .   |   .   .   .   |   .   .   .   |   .   .   .   |   .   .   .   |   .   .   .   |   .   .   .   
|   .   .   .   |   .   0   .   |   .   .   .   |   .   .   .   |   .   .   .   |   .   .   .   |   .   .   .   |   .   .   .   |   .   .   .   |   .   .   .   |   .   .   .   
|   .   .   .   |   .   .   .   3   .   2   .   00 000 000 000 000 000 000 000 000 000 000 000 000 000 000 000 000 000 000 000 0|   .   .   .   0   0   .   .   |   .   .   .   

|   .   .   .   |   .   .   .   .   
|   .   .   .   |   .   .   .   .   
|   .   .   .   |   .   .   .   .   
|   .   .   .   |   .   .   .   .   

