|   .   .   .   |   .   .   .   |   .   .   .   |   .   .   .   |   .   .   .   |   .   .   .   |   .   .   .   |   .   .   .   |   .   .   .   |   .   .   5   |   .   .   .   
|   .   .   .   |   .   .   .   |   .   .   .   |   .   .   .   |   .   .   .   |   .   .   .   |   .   .   .   |   . 777 777   |   7   .   7   |   .   5   . 7 |   7   .   7   
|   .   .   .   |   .   .   .   |   .   .   .   |   .   .   .   |   .   .   .   |   .   .   .   0 0 0 0 0 0 0 0 0 0 0   .   . 0 0   .   0 00. 0 | 0 8 77. 77.   0   .   0 00. 0 
|   .   .   .   |   .   .   .   |   .   .   .   |   .   .   .   |   .   .   .   |   .   .   .   |   .   .   .   |   .   .   .   |   .   .   .   |   .   .   .   |   .   .   .   

|   .   .   5   |   .   .   .   |   .   .   5   |   .   .   .   |   .   .   5   |   .   .   .   |   .   .   .   |   .   .   .   |   .   .   .   |   .   .   .   |   .   .   .   
|   .   5   . 7 |   7   .   7   |   .   5   . 7 |   7   .   57  |   .   5   . 7 |   .   .   5   |   .   .   .   |   .   .   .   |   .   .   .   |   .   .   .   |   .   .   .   
| 0 8 77. 77.   0   .   0 0 . 0 | 0 8 77. 77.   0   .   0 00. 0 | 0 8 77. 77.   |   .   .   .   |   .   .   .   |   .   .   .   |   .   .   .   |   .   .   .   |   .   .   .   
|   .   .   .   |   .   .   .   |   .   .   .   |   .   .   .   |   .   .   .   0   .   .   .   0   .   .   .   |   .   .   .   |   .   .   .   |   .   .   .   |   0   .   0   

|   .   .   .   |   .   .   .   |   .   .   .   |   .   .   .   |   .   .   .   |   .   .   .   |   .   .   .   |   .   .   .   |   .   .   .   |   .   .   .   |   .   .   .   
|   .   .   .   |   .   .   .   |   .   .   .   |   .   .   .   |   .   .   .   |   .   .   .   |   .   .   .   |   .   .   .   |   .   .   .   |   .   .   .   |   .   .   .   
|   .   .   .   7 7 7 7 7 7 7 7 |   .   7 5 .   |   .   .   .   |   .   7 5 .   |   .   .   .   |   .   7 5 .   |   .   .   .   |   .   7 5 .   |   .   .   .   |   .   7 5 .   
|   0   .   0   |   .   .   .   0 0 0 0 .   7 6 0 0 0 0 3 5 3 5 0 0 0 0 .   7 6 0 0 0 0 3 5 3 5 0 0 0 0 .   7 6 0 0 0 0 3 5 3 5 0 0 0 0 .   7 6 0 0 0 0 3 5 3 5 0 0 0 0 .   7 6 

|   .   .   .   |   .   .   .   |   .   .   .   |   .   .   .   |   .   .   .   |   .   .   .   |   .   .   .   |   .   .   .   |   .   .   .   |   .   .   .   |   .   .   .   
|   .   .   .   |   .   .   5   |   .   .   .   |   .   .   .   |   .   .   .   |   .   .   5   |   .   .   .   |   .   .   .   |   .   .   .   |   .   .   5   |   .   .   .   
|   .   .   .   |   .   .   . 7 |   .   .   .   |   .   2 1 .   |   7   .   .   |   .   .   . 7 |   7   .   7   |   7   2 1 .   |   .   .   .   |   .   .   . 7 |   .   .   .   
0 0 0 0 0 0 0 0 0 0 0 0 7 6 .   0 0 0 0 0 0 0 0 0 0 0 0 .   3 0 0 0 . 0 0 0 0 0 0 0 0 0 7 6 .   0 0 . 0 0 0 . 0 0 0 . 0 .   3 0 0 0 0 0 0 0 0 0 0 0 0 0 7 6 .   0 0 0 0 0 0 0 0 

|   .   .   .   |   .   .   .   |   .   .   .   |   .   .   .   |   .   .   .   |   .   .   .   |   .   0  0222 |   .   .   .   7 5 .   .   .   |   .   .   .   |   .   0  0222 
|   .   .   .   |   .   .   .   |   .   .   5   |   .   .   .   |   .   .   .   |   .   .   .   |   . 02. 2 .   |   .   .   .   |   7 6 5   .   |   .   .   .   |   . 02. 2 .   
|   .   2 1 .   |   7   .   .   |   .   .   . 7 |   7   .   7   |   7   2 1 .   0 000 0 3 5 3   0 0 0   .   .   0 0 0 0 3 5 3   |   .   . 7 6 5 0 000 0 3 5 3   0 000   .   .   
0 0 0 0 .   3 0 0 0 . 0 0 0 0 0 0 0 0 0 7 6 .   0 0 . 0 0 00. 0 0 00. 0 .   3 0 |   .   .   .   |   .   .   .   |   .   .   .   |   .   .   .   |   .   .   .   |   .   .   .   

|   .   .   .   9 7 . 7 .   .   |   .   .   .   |   .   .   .   |   .   .   .   |   .   .   .   |   .   .   .   |   .   .   .   |   .   .   .   |   .   .   .   |   .   .   .   
|   .   .   .   |   9   9 8 7 5 |   .   .   .   |   .   .   .   |   .   .   .   |   .   .   .   |   .   .   .   |   .   .   .   |   .   .   .   |   .   .   .   2 0 .   .   .   
0 000 0 3 5 3   |   .   .   .   7 5 . 5 .   .   |   .   .   .   |   .   .   .   |   .   .   .   |   .   .   .   |   .   .   .   |   .   .   .   |   .   .   .   |   2 1 0 2 1 0 
|   .   .   .   |   .   .   .   |   7   7 6 5 3 3   3 3 3 3 0 3 2   2   1   1   0 0 0 0 0 0 0 0 0 0 0 0 0 0 0 0 3   3 3 3 3 0 3 2   2   1   1   0 0 0 0 0 0 0 0 |   .   .   .   

|   .   .   .   |   .   .   .   |   .   .   .   |   .   .   .   |   .   .   .   |   .   .   .   |   .   .   .   |   .   .   .   |   .   .   .   |   .   .   .   |   .   .   .   
|   .   .   .   |   .   .   .   |   .   .   .   |   .   .   .   |   .   .   .   |   .   .   .   |   .   .   .   |   .   2 0 .   |   .   .   .   |   .   . 0 1 2 |   .   .   .   
|   .   .   .   |   .   .   .   |   .   .   .   |   .   .   .   |   .   .   .   |   .   .   .   |   .   . 0 . 0 |   .   .   2 1 |   .   . 0 . 0 | 0 1 2 4   .   |   .   . 0 . 0 
3   3 3 3 3 0 3 2   2   1   1   0 0 0 0 0 0 0 0 0 0 0 0 0 0 0 0 3   3 3 3 3 0 3 2   2   1   1   0 0 0 0 3   3   0 0 0 0 .   .   0 0 0 0 3   3   0   .   .   .   0 0 0 0 3   3   

|   .   .   .   |   .   .   .   |   .   .   .   |   .   .   .   |   .   .   0   |   .   .   .   |   .   .   .   |   .   .   .   |   .   .   .   |   .   .   .   |   .   .   .   
|   .   2 0 .   |   .   .   .   |   .   2 0 .   |   .   .   .   |   .   .   . 2 |   .   .   .   |   .   .   .   |   2   .   .   |   .   .   5   |   .   .   .   |   .   .   .   
|   .   .   2 1 |   .   . 0 . 0 |   .   .   2 1 |   .   .   .   |   .   2 1 .   |   .   .   .   |   .   2 1 .   |   .   .   .   |   .   .   . 7 |   7   .   7   |   7   2 1 .   
0 0 0 0 .   .   0 0 0 0 3   3   0 0 0 0 .   .   0 0 0 0 0 0 0 0 0 0 0 0 .   .   0 0 0 0 0 0 0 0 0 0 0 0 .   3 0 0 0 . 0 0 0 0 0 0 0 0 0 7 6 .   0 0 . 0 0 00. 0 0 00. 0 .   3 0 

|   .   .   .   |   .   0  0222 |   .   .   .   7 5 .   .   .   |   .   .   .   |   .   0  0222 |   .   .   .   9 7 . 7 .   .   |   .   .   .   |   .   .   .   |   .   .   .   
|   .   . 0 .   |   . 02. 2 .   |   .   . 0 .   |   7 6 5   .   |   .   . 0 .   |   . 02. 2 .   |   .   . 0 .   |   9   9 8 7 5 |   .   .   .   |   .   .   .   |   .   .   .   
0 000 0 3   3   0 000   .   .   0 000 0 3   3   |   .   . 7 6 5 0 000 0 3   3   0 000   .   .   0 000 0 3   3   |   .   .   .   7 5 . 5 .   .   |   .   .   .   |   .   .   .   
|   .   .   .   |   .   .   .   |   .   .   .   |   .   .   .   |   .   .   .   |   .   .   .   |   .   .   .   |   .   .   .   |   7   7 6 5 3 3   . 3 3 3 0 3 2   2   1   1   

|   .   .   .   |   .   .   .   |   .   .   .   |   .   .   .   |   .   .   .   |   .   .   .   |   .   .   .   |   .   .   .   |   .   .   .   |   .   .   .   |   .   .   .   
|   .   .   .   |   .   .   .   |   .   .   .   |   .   .   .   |   .   .   .   2 0 .   .   .   |   .   .   .   |   .   .   .   |   .   .   .   |   0   2 2 2 2 |   .   .   .   
|   .   .   .   |   .   .   .   |   .   .   .   |   .   .   .   |   .   .   .   |   2 1 0 2 1 0 |   .   .   .   |   .   .   .   |   .   .   .   | 02. 2 .   .   |   .   .   .   
0 0 0 0 0 0 0 0 0 0 0 0 0 0 0 0 3   3 3 3 3 0 3 2   2   1 1 1   0 0 0 0 0 0 0 0 |   .   .   .   3   3 3 3 3 0 3 2   2   1 1 1 1 0 0 0 0 0 0 0 0 0   .   .   .   3   3 3 3 3 0 3 

|   .   .   .   |   .   .   .   |   .   .   .   |   .   .   .   |   .   .   .   |   .   .   .   |   .   .   .   |   .   .   .   |   .   .   .   |   .   .   .   |   .   .   .   
|   .   .   .   |   .   .   .   |   .   .   .   |   .   .   .   |   .   .   .   |   .   .   .   |   .   .   .   |   .   .   .   |   .   .   .   |   .   .   .   |   .   .   .   
|   .   .   .   |   .   .   .   |   .   .   .   |   .   .   .   |   .   .   .   |   .   .   .   |   .   .   .   |   .   .   .   |   .   .   .   |   .   .   .   |   .   .   .   
2   2   1   1   0   .   .   .   |   .   .   .   |   .   .   .   |   .   .   .   |   .   .   .   |   .   .   .   |   .   .   .   |   .   .   .   |   .   .   .   |   .   .   .   

|   .   .   .   |   .   .   .   |   .   .   .   |   .   .   .   |   .   .   .   |   .   .   .   |   .   .   .   |   .   .   .   |   .   .   .   |   .   .   .   |   .   .   .   
|   .   .   .   |   .   .   .   |   . 3 2 0 .   |   . 7 .   7   |   . 7 .   7   |   . 7 .   7   |   . 3 2 0 .   |   . 7 .   7   |   . 7 .   7   |   . 7 .   7   |   . 3 2 0 .   
|   .   .   .   |   .   .   .   3 2 0   .   3 2 0 0 0   0 0 . 0 0 0 0   0 0 . 0 0 0 0   0 0 .   3 2 0   .   3 2 0 0 0   0 0 . 0 0 0 0   0 0 . 0 0 0 0   0 0 .   3 2 0   .   3 2 
|   .   .   .   |   .   .   .   |   .   .   .   |   .   .   .   |   .   .   .   |   .   .   .   |   .   .   .   |   .   .   .   |   .   .   .   |   .   .   .   |   .   .   .   

|   .   .   .   |   .   .   .   |   .   .   .   |   .   .   .   |   .   .   .   |   .   .   .   |   .   .   .   |   .   .   .   |   .   .   .   |   .   .   .   |   .   .   .   
|   .   .   .   |   .   .   .   |   .   .   .   |   .   .   .   |   .   .   .   |   .   .   .   |   .   .   .   |   .   .   .   |   .   .   .   |   .   .   .   |   .   .   .   
|   .   .   .   |   .   .   .   |   .   . 7 .   7   7 7 .   7 7 |   .   .   .   |   .   .   .   |   .   7 7 .   7   7 7 .   7 7 |   .   .   .   |   .   .   .   |   .   . 7 .   
3   3   3 3 3   2   2   1   1   0 0 0   0   0 0 | 0 .   0 0 .   3   3   3 3 3   2   2   1   1   0 0 0   .   0 0 | 0 .   0 0 .   3   3   3 3 3   2   2   1   1 1 0 0 0   0   0 0 

|   .   .   .   |   .   .   .   |   .   .   .   |   .   .   .   |   .   .   .   |   .   .   .   |   .   .   .   |   .   .   .   |   .   .   .   |   .   .   .   |   .   .   .   
|   .   .   .   |   .   .   .   |   .   .   .   |   .   .   .   |   .   .   .   |   .   .   .   |   .   .   .   |   .   .   .   |   .   .   .   |   .   .   .   |   .   .   .   
7   7 7 .   7 7 |   .   .   .   |   .   .   .   |   . 7 .   7   5   . 7 .   7   4   . 7 .   7   |   . 3 2 0 .   |   . 7 .   7   5   . 7 .   7   4   . 7 .   7   |   . 3 2 0 .   
| 0 .   0 0 .   3   3   3 3 3   2   2   1   1   0   0   0 0 . 0 | 0 0   0 0 . 0 | 0 0   0 0 .   3 2 0   .   3 2 0 0 0   0 0 . 0 | 0 0   0 0 . 0 | 0 0   0 0 .   3 2 0   .   3 2 

|   .   .   .   |   .   .   .   |   .   .   .   |   .   .   .   |   .   .   .   |   .   .   .   |   .   .   .   |   .   .   .   |   .   .   .   |   .   .   .   |   .   |   .   
|   .   .   .   |   .   .   .   |   .   .   .   |   .   .   .   |   .   .   .   |   .   .   .   |   .   .   .   |   .   .   .   |   .   .   .   |   .   .   .   |   .   |   .   
|   . 7 .   7   5   . 7 .   7   4   . 7 .   7   |   . 3 2 0 .   |   . 7 .   7   5   . 7 .   7   4   . 7 .   7   |   . 3 2 0 .   |   . 3 2 0 .   0   .   .   .   |   .   0   .   
0 0 0   0 0 . 0 | 0 0   0 0 . 0 | 0 0   0 0 .   3 2 0   .   3 2 0 0 0   0 0 . 0 | 0 0   0 0 . 0 | 0 0   0 0 .   3 2 0   .   3 2 3 2 0   .   3 2 |   .   .   .   |   .   |   .   

.   .   |   .   .   .   |   .   .   .   |   .   .   .   |   .   .   .   |   .   .   .   |   .   .   .   |   .   .   .   |   .   .   .   |   .   .   5   |   .   .   .   |   .   
.   .   |   .   .   .   |   .   .   .   |   .   .   .   |   .   .   .   |   .   .   .   |   .   .   .   | 777   7   7   |   7   .   7   |   .   5   . 7 |   7   .   7   |   .   
.   .   |   .   .   0 0 0   .   .   .   |   .   .   0 0 0   .   .   .   |   .   .   .   0 0 0 0 0 0 0 0 0   . 0 . 0 .00 0   .   0 00. 0 | 0 8 77. 77.   0   .   0 00. 0 | 0 8 77
.   .   |   .   .   .   |   .   .   .   |   .   .   .   |   .   .   .   |   .   .   .   |   .   .   .   |   .   .   .   |   .   .   .   |   .   .   .   |   .   .   .   |   .   

.   5   |   .   .   .   |   .   .   5   |   .   .   .   |   .   .   5   |   .   .   .   |   .   .   .   |   .   .   .   |   .   .   .   |   .   .   .   |   .   .   .   |   .   
5   . 7 |   57  .   57  |   .   5   . 7 |   57  .   57  |   .   5   . 7 |   .   .   5   |   .   .   .   |   .   2 0 .   |   .   .   .   |   .   . 0 1 2 |   .   .   .   |   .   
. 77.   0   .   0 00. 0 | 0 8 77. 77.   0   .   0 00. 0 | 0 8 77. 77.   |   .   .   .   |   .   . 0 . 0 |   .   .   2 1 |   .   . 0 . 0 | 0 1 2 4   .   |   .   . 0 . 0 |   .   
.   .   |   .   .   .   |   .   .   .   |   .   .   .   |   .   .   .   0   .   .   .   0 0 0 0 3   3   0 0 0 0 .   .   0 0 0 0 3   3   0   .   .   .   0 0 0 0 3   3   0 0 0 0 

.   .   |   .   .   .   |   .   .   .   |   .   .   .   |   .   .   0   |   .   .   .   |   .   .   .   |   .   .   .   |   .   .   0   |   .   .   .   |   .   .   .   |   .   
2 0 .   |   .   .   .   |   0   2 0 .   |   .   .   .   |   .   .   . 2 |   .   .   .   |   .   .   .   |   2   .   .   |   .   .   . 2 |   02  .   02  |   02  .   .   |   .   
.   2 1 |   .   . 0 . 0 | 02. 2 .   2 1 |   .   .   .   |   .   2 1 .   |   .   .   .   |   .   2 1 .   |   .   .   .   |   .   2 1 .   |   .   .   .   |   .   2 1 .   0 000 0 
.   .   0 0 0 0 3   3   0   .   .   .   0 0 0 0 0 0 0 0 0 0 0 0 .   .   0 0 0 0 0 0 0 0 0 0 0 0 .   3 0 0 0 . 0 0 0 0 0 0 0 0 0 .   .   0 0 . 0 0 0 . 0 0 0 . 0 .   3 0 |   .   

.   .   |   .   0  0222 |   .   .   .   7 5 .   .   .   |   .   .   .   |   .   0  0222 |   .   .   .   9 7 . 7 .   .   |   .   .   .   |   .   .   .   |   .   .   .   |   .   
. 0 .   |   . 02. 2 .   |   .   . 0 .   |   7 6 5   .   |   .   . 0 .   |   . 02. 2 .   |   .   . 0 .   |   9   9 8 7 5 |   .   .   .   |   .   .   .   |   .   .   .   |   .   
3   3   0 000   .   .   0 000 0 3   3   |   .   . 7 6 5 0 000 0 3   3   0 000   .   .   0 000 0 3   3   |   .   .   .   7 5 . 5 .   .   |   .   .   .   |   .   .   .   |   .   
.   .   |   .   .   .   |   .   .   .   |   .   .   .   |   .   .   .   |   .   .   .   |   .   .   .   |   .   .   .   |   7   7 6 5 3 3   3 3 3 3 0 3 2   2   1   1   0 0 0 0 

.   .   |   .   .   .   |   .   .   .   |   .   .   .   |   .   .   .   |   .   .   .   |   .   .   .   |   .   .   .   |   .   .   .   |   .   .   .   |   .   .   .   |   .   
.   .   |   .   .   .   |   .   .   .   |   .   .   .   |   .   .   .   | 2 0   .   .   |   .   .   .   |   .   .   .   |   .   .   .   |   0   2 2 2 2 |   .   .   .   |   .   
.   .   |   .   .   .   |   .   .   .   |   .   .   .   |   .   .   .   |   . 2 1 0 2 1 |   .   .   .   |   .   .   .   |   .   .   .   | 02. 2 .   .   |   .   .   .   |   .   
0 0 0 0 0 0 0 0 0 0 0 0 3   3 3 3 3 0 3 2   2   1   1   0 0 0 0 0 0 0 0 0   .   .   .   3   3 3 3 3 0 3 2   2   1 1 1 1 0 0 0 0 0 0 0 0 0   .   .   .   3   3 3 3 3 0 3 2   2   

.   .   |   .   .   .   |   .   .   .   |   .   .   .   |   .   .   .   |   .   .   .   |   .   .   .   |   .   .   .   |   .   .   .   |   .   .   .   |   .   .   .   |   .   
.   .   |   .   .   .   |   .   .   .   |   .   .   .   |   .   .   .   |   .   0   . 0 02  02  . 0202  |   .   .   .   |   .   .   .   |   .   0   . 0 02  02  . 2 2   |   .   
.   .   |   .   .   .   |   .   .   .   |   .   .   .   |   .   .   .   |   .   .   .   |   .   .   .   |   .   .   .   |   .   .   .   |   .   .   .   |   .   .   .   |   .   
1   1   0 0 0 0 0 0 0 0 0 0 0 0 0 0 0 3 2 0 0 2 1 0 0 1 0 0 0 0 0 0 0 3 2 0 0 2 . 0 0   | 0 . 0 0   . 3 2 0 0 2 1 0 0 1 0 0 0 0 0 0 0 3 2 0 0 2 . 0 0   | 0 . 0 0   . 3 2 0 0 2 

.   .   |   .   .   .   |   .   .   .   |   .   .   .   |   .   .   .   |   .   .   .   |   .   .   .   |   .   .   .   |   .   .   .   |   .   .   .   |   .   .   .   |   .   
.   .   |   .   .   .   |   .   0   . 0 02  02  . 022   |   .   .   .   |   .   .   .   |   .   0   . 0 02  020 . 020   |   .   .   .   |   .   .   .   |   .   .   .   |   .   
.   .   |   .   .   .   |   .   .   .   |   .   .   .   |   .   .   .   |   .   .   .   |   .   .   .   |   .   2   . 20|   .   .   .   |   .   .   0   |   .   .   .   |   .   
1 0 0 1 0 0 0 0 0 0 0 3 2 0 0 2 . 0 0   | 0 . 0 0   . 3 2 0 0 2 1 0 0 1 0 0 0 0 0 0 0 3 2 0 0 2 . 0 0   | 0 .   .   .   0 0 0 0 0 3 0 0 2 0 0 3 0 0 . 3 0 0 0 0 0 3 0 0 2 0 0 3 

.   .   |   .   .   .   |   .   .   .   |   .   .   .   |   .   .   .   |   .   .   .   |   .   .   .   |   .   .   .   |   .   .   .   |   .   .   .   |   .   .   .   |   .   
.   .   |   .   .   .   |   .   .   .   |   .   .   .   |   .   .   .   |   .   .   .   |   .   .   .   |   .   .   .   |   .   .   .   |   .   .   .   |   .   .   .   |   .   
.   0   |   .   .   .   |   .   .   0   |   .   .   .   |   .   .   0   |   .   .   .   |   .   .   0   |   .   .   .   |   .   .   0   |   .   .   .   |   .   .   0   |   .   
0 0 . 3 0 0 0 0 0 3 0 0 2 0 0 3 0 0 . 3 0 0 0 0 0 3 0 0 2 0 0 3 0 0 . 3 0 0 0 0 0 3 0 0 2 0 0 3 0 0 . 3 0 0 0 0 0 3 0 0 2 0 0 3 0 0 . 3 0 0 0 0 0 3 0 0 2 0 0 3 0 0 . 3 0 0 0 0 

.   .   |   .   .   .   .   |   .   .   .   |   .   .   .   |   .   .   .   |   .   .   .   |   .   .   .   |   .   .   .   |   .   .   .   |   .   .   
.   .   |   .   .   .   .   |   .   .   .   |   .   .   .   |   .   .   .   |   .   .   .   |   .   .   .   |   .   .   .   |   .   .   .   |   .   .   
.   .   |   .   .   0   .   |   .   .   .   |   .   .   .   |   .   .   .   |   .   .   .   |   .   .   .   |   .   .   .   |   .   .   .   |   .   .   
0 3 0 0 2 0 0 3 0 0 . 3 0 0 0   .   .   .   0   .   .   .   0   .   .   .   0 0 0 0 0   .   |   .   .   .   |   .   .   .   |   .   .   .   |   .   .   

