|     .     |     .     |     .     |     .     |     .     |     .     |     .     |     .     |     .     |     .     |     .     |     .     |     .     |     .     |     .     
|     .     |     .     |     .     |     .     |     .     |     .     |     .     |     .     |     .     |     .     |     .     |     .     |     .     |     .     |     .     
|     .     |     .     |     .     |     .     |     .     |     .     |     .     |     .     |     .     |     .     |     .     |     .     |     .     |     .     |     .     
0     .     32020 .     8 88888 88887 77777 77770     .     32020 .     8 88888 88887 77777 77773200003200003200003200008 88888 88887 77777 77770     .     32020 .     8 88888 8888

|     .     |     .     |     .     |     .     |     .     |     .     |     .     |     .     |     .     |     .     |     .     |     .     |     .     |     .     |     .     
|     .     |     .     |     .     |     .     |     .     |     .     |     .     |     .     |     .     |     .     |     .     |     .     |     .     |     .     |     .     
|     .     | C   C   C | C   C     | F   F     | F   F     | C   C   C | C   C     | F   F   F | F   F     | C   C   C | C   C     | F   F   F | F   F     | C   C   C | C   C     
7 77777 7777C   C . C   C   C . C C F   F . F F F   F . F F C   C . C   C   C . C C F   F . F   F   F . F F C   C . C   C   C . C C F   F . F   F   F . F F C   C . C   C   C . C C 

|     .     |     .     |     .     |     .     |     .     |     .     |     .     |     .     |     .     |     .     |     .     |     .     |     .     |     .     |     .     
|     .     |     .     |     .     |     .     |     .     |     .     |     .     |     .     |     .     |     .     |     .     |     .     |     .     |     .     |     .     
| F   F   F | F   F   F | C   C   C | C   C     | F   F   F | F   F F   | C   C   C | C   C     | F   F   F | F   F   F |     .     |     .     |     .     |     .     |     .     
F   F . F   F   F . F   C   C . C   C   C . C C F   F . F   F   F .   F C   C . C   C   C . C C F   F . F   F   F . F   0     .     32020 .     8 88888 88887 77777 77770     .     

|     .     |     .     |     .     |     .     |     .     |     .     |     .     |     .     |     .     |     .     |     .     |     .     |     .     |     .     |     .     
|     .     |     .     |     .     |     .     |     .     |     .     |     .     |     .     |     .     |     .     |     .     |     .     |     .     |     .     |     .     
|     .     |     .     |     .     |     .     |     .     |     .     |     .     |     .     |     .     |     .     |     .     | C   C   C | C   C     | F   F   F | F   F   F 
32020 .     8 88888 88887 77777 77773200003200003200003200008 88888 88887 77777 77770     .     32020 .     8 88888 88887 77777 7777C   C . C   C   C . C C F   F . F   F   F . F   

|     .     |     .     |     .     |     .     |     .     |     .     |     .     |     .     |     .     |     .     |     .     |     .     |     .     |     .     |     .     
|     .     |     .     |     .     |     .     |     .     |     .     |     .     |     .     |     .     |     .     |     .     |     .     |     .     |     .     |     .     
| C   C   C | C   C     | F   F   F | F   F   F | C   C   C | C   C     | F   F   F | F   F     | C   C   C | C   C     | F   F   F | F   F     | C   C   C | C   C   C | F   F   F 
C   C . C   C   C . C C F   F . F   F   F . F   C   C . C   C   C . C C F   F . F   F   F . F F C   C . C   C   C . C C F   F . F   F   F . F F C   C . C   C   C . C   F  F  . F   

|     .     |     .     |     .     |     .     |     .     |     .     |     .     |     .     |     .     |     .     |     .     |     .     |     .     |     .     |     .     
|     .     |     .     |     .     |     .     |     .     |     .     |     .     |     .     |     .     |     .     |     .     |     .     |     .     |     .     |     .     
| F   F     | C   C   C | C   C     | F   F   F | F   F     |     .     |     .     |     .     |     .     |     .     |     .     |     .     |     .     |     .     |     .     
F  F  . F F C  C  . C   C  C  . C C F  F  . F   F  F  . F F 0     .     32020 .     8 88888 88887 77777 77770     .     32020 .     8 88888 88887 77777 7777320000320000320000320000

|     .     |     .     |     .     |     .     |     .     |     .     |     .     |     .     |     .     |     .     |     .     |     .     |     .     |     .     |     .     
|     .     |     .     |     .     |     .     |     .     |     .     |     .     |     .     |     .     |     .     |     .     |     .     |     .     |     .     |     .     
|     .     |     .     |     .     |     .     |     .     |     .     |     .     |     .     |     .     |     .     |     .     |     .     |     .     |     .     |     .     
8 88888 88887 77777 77770     .     32020 .     8 88888 88887 77777 77770     .     |     .     |     .     |     .     3200003200003200003200003200003200003200003200000 00003202  

|     .     |     .     |     .     |     .     |     .     |     .     |     .     |     .     |     .     |     .     |     .     |     .     |     .     |     .     |     .     
|     .     |     .     |     .     |     .     |     .     |     .     |     .     |     .     |     .     |     .     |     .     |     .     |     .     |     .     |     .     
|     .     |     .     |     .     |     .     |     .     |     .     |     .     |     .     |     .     |     .     |     .     |     .     |     .     |     .     |     .     
0 00003202  0 00003202  0 00003202  3200003200003200003200003200003200003200003200000     .     32020 .     8 88888 88887 77777 77770     .     32020 .     8 88888 88887 77777 7777

|     .     |     .     |     .     |     .     |     .     |     .     |     .     |     .     |     .     |     .     |     .     |     .     |     .     |     .     |     .     
|     .     |     .     |     .     |     .     |     .     |     .     |     .     |     .     |     .     |     .     |     .     |     .     |     .     |     .     |     .     
|     .     |     .     |     .     |     .     |     .     |     .     |     .     |     .     |     .     |     .     |     .     |     .     |     .     |     .     |     .     
3200003200003200003200008 88888 88887 77777 77770     .     32020 .     8 88888 88887 77777 77773200003200003200003200003200003200003200003200000 00003202  0 00003202  0 00003202  

|     .     |     .     |     .     |     .     |     .     |     .     |     .     |     .     |   
|     .     |     .     |     .     |     .     |     .     |     .     |     .     |     .     |   
|     .     |     .     |     .     |     .     |     .     |     .     |     .     |     .     |   
0 00003202  |     .     |     .     |     .     |     .     |     .     |     .     |     .     |   

